<?xml version="1.0" encoding="UTF-8" standalone="no" ?>
<COLLADA xmlns="http://www.collada.org/2005/11/COLLADASchema" version="1.4.1">
    <asset>
        <contributor>
            <authoring_tool>SketchUp 14.1.1283</authoring_tool>
        </contributor>
        <created>2019-12-13T10:34:56Z</created>
        <modified>2019-12-13T10:34:56Z</modified>
        <unit meter="0.0254" name="inch" />
        <up_axis>Z_UP</up_axis>
    </asset>
    <library_cameras>
        <camera id="ID1" name="skp_camera_Last_Saved_SketchUp_View">
            <optics>
                <technique_common>
                    <perspective>
                        <yfov>45</yfov>
                        <aspect_ratio>0</aspect_ratio>
                        <znear>1</znear>
                        <zfar>1000</zfar>
                    </perspective>
                </technique_common>
            </optics>
        </camera>
    </library_cameras>
    <library_visual_scenes>
        <visual_scene id="ID2">
            <node name="SketchUp">
                <node name="skp_camera_Last_Saved_SketchUp_View">
                    <matrix>0.8777759 -0.1775448 0.4449576 68.58225 0.4790714 0.3253055 -0.815271 -53.4609 0 0.9287918 0.370602 45.62106 0 0 0 1</matrix>
                    <instance_camera url="#ID1" />
                </node>
                <node id="ID3" name="group_0">
                    <matrix>1 0 0 -7.874016 0 1 0 0 0 0 1 1.968504 0 0 0 1</matrix>
                    <instance_geometry url="#ID4">
                        <bind_material>
                            <technique_common>
                                <instance_material symbol="Material2" target="#ID5">
                                    <bind_vertex_input semantic="UVSET0" input_semantic="TEXCOORD" input_set="0" />
                                </instance_material>
                                <instance_material symbol="Material3" target="#ID16">
                                    <bind_vertex_input semantic="UVSET0" input_semantic="TEXCOORD" input_set="0" />
                                </instance_material>
                                <instance_material symbol="Material4" target="#ID17">
                                    <bind_vertex_input semantic="UVSET0" input_semantic="TEXCOORD" input_set="0" />
                                </instance_material>
                                <instance_material symbol="Material5" target="#ID19">
                                    <bind_vertex_input semantic="UVSET0" input_semantic="TEXCOORD" input_set="0" />
                                </instance_material>
                            </technique_common>
                        </bind_material>
                    </instance_geometry>
                    <instance_geometry url="#ID25">
                        <bind_material>
                            <technique_common>
                                <instance_material symbol="Material2" target="#ID16">
                                    <bind_vertex_input semantic="UVSET0" input_semantic="TEXCOORD" input_set="0" />
                                </instance_material>
                                <instance_material symbol="Material3" target="#ID26">
                                    <bind_vertex_input semantic="UVSET0" input_semantic="TEXCOORD" input_set="0" />
                                </instance_material>
                                <instance_material symbol="Material4" target="#ID17">
                                    <bind_vertex_input semantic="UVSET0" input_semantic="TEXCOORD" input_set="0" />
                                </instance_material>
                                <instance_material symbol="Material5" target="#ID19">
                                    <bind_vertex_input semantic="UVSET0" input_semantic="TEXCOORD" input_set="0" />
                                </instance_material>
                            </technique_common>
                        </bind_material>
                    </instance_geometry>
                </node>
                <node id="ID40" name="group_1">
                    <matrix>1 0 0 32.28346 0 1 0 0 0 0 1 1.968504 0 0 0 1</matrix>
                    <instance_geometry url="#ID41">
                        <bind_material>
                            <technique_common>
                                <instance_material symbol="Material2" target="#ID16">
                                    <bind_vertex_input semantic="UVSET0" input_semantic="TEXCOORD" input_set="0" />
                                </instance_material>
                                <instance_material symbol="Material3" target="#ID42">
                                    <bind_vertex_input semantic="UVSET0" input_semantic="TEXCOORD" input_set="0" />
                                </instance_material>
                                <instance_material symbol="Material4" target="#ID19">
                                    <bind_vertex_input semantic="UVSET0" input_semantic="TEXCOORD" input_set="0" />
                                </instance_material>
                                <instance_material symbol="Material5" target="#ID52">
                                    <bind_vertex_input semantic="UVSET0" input_semantic="TEXCOORD" input_set="0" />
                                </instance_material>
                            </technique_common>
                        </bind_material>
                    </instance_geometry>
                    <instance_geometry url="#ID58">
                        <bind_material>
                            <technique_common>
                                <instance_material symbol="Material2" target="#ID5">
                                    <bind_vertex_input semantic="UVSET0" input_semantic="TEXCOORD" input_set="0" />
                                </instance_material>
                                <instance_material symbol="Material3" target="#ID16">
                                    <bind_vertex_input semantic="UVSET0" input_semantic="TEXCOORD" input_set="0" />
                                </instance_material>
                                <instance_material symbol="Material4" target="#ID19">
                                    <bind_vertex_input semantic="UVSET0" input_semantic="TEXCOORD" input_set="0" />
                                </instance_material>
                                <instance_material symbol="Material5" target="#ID52">
                                    <bind_vertex_input semantic="UVSET0" input_semantic="TEXCOORD" input_set="0" />
                                </instance_material>
                            </technique_common>
                        </bind_material>
                    </instance_geometry>
                </node>
                <node id="ID68" name="group_2">
                    <matrix>1 0 0 -7.874016 0 1 0 0 0 0 1 0 0 0 0 1</matrix>
                    <instance_geometry url="#ID69">
                        <bind_material>
                            <technique_common>
                                <instance_material symbol="Material2" target="#ID5">
                                    <bind_vertex_input semantic="UVSET0" input_semantic="TEXCOORD" input_set="0" />
                                </instance_material>
                                <instance_material symbol="Material3" target="#ID16">
                                    <bind_vertex_input semantic="UVSET0" input_semantic="TEXCOORD" input_set="0" />
                                </instance_material>
                                <instance_material symbol="Material4" target="#ID17">
                                    <bind_vertex_input semantic="UVSET0" input_semantic="TEXCOORD" input_set="0" />
                                </instance_material>
                                <instance_material symbol="Material5" target="#ID19">
                                    <bind_vertex_input semantic="UVSET0" input_semantic="TEXCOORD" input_set="0" />
                                </instance_material>
                            </technique_common>
                        </bind_material>
                    </instance_geometry>
                    <instance_geometry url="#ID79">
                        <bind_material>
                            <technique_common>
                                <instance_material symbol="Material2" target="#ID16">
                                    <bind_vertex_input semantic="UVSET0" input_semantic="TEXCOORD" input_set="0" />
                                </instance_material>
                                <instance_material symbol="Material3" target="#ID26">
                                    <bind_vertex_input semantic="UVSET0" input_semantic="TEXCOORD" input_set="0" />
                                </instance_material>
                                <instance_material symbol="Material4" target="#ID17">
                                    <bind_vertex_input semantic="UVSET0" input_semantic="TEXCOORD" input_set="0" />
                                </instance_material>
                                <instance_material symbol="Material5" target="#ID19">
                                    <bind_vertex_input semantic="UVSET0" input_semantic="TEXCOORD" input_set="0" />
                                </instance_material>
                            </technique_common>
                        </bind_material>
                    </instance_geometry>
                </node>
                <node id="ID89" name="group_3">
                    <matrix>1 0 0 32.28346 0 1 0 0 0 0 1 0 0 0 0 1</matrix>
                    <instance_geometry url="#ID90">
                        <bind_material>
                            <technique_common>
                                <instance_material symbol="Material2" target="#ID16">
                                    <bind_vertex_input semantic="UVSET0" input_semantic="TEXCOORD" input_set="0" />
                                </instance_material>
                                <instance_material symbol="Material3" target="#ID42">
                                    <bind_vertex_input semantic="UVSET0" input_semantic="TEXCOORD" input_set="0" />
                                </instance_material>
                                <instance_material symbol="Material4" target="#ID19">
                                    <bind_vertex_input semantic="UVSET0" input_semantic="TEXCOORD" input_set="0" />
                                </instance_material>
                                <instance_material symbol="Material5" target="#ID52">
                                    <bind_vertex_input semantic="UVSET0" input_semantic="TEXCOORD" input_set="0" />
                                </instance_material>
                            </technique_common>
                        </bind_material>
                    </instance_geometry>
                    <instance_geometry url="#ID100">
                        <bind_material>
                            <technique_common>
                                <instance_material symbol="Material2" target="#ID5">
                                    <bind_vertex_input semantic="UVSET0" input_semantic="TEXCOORD" input_set="0" />
                                </instance_material>
                                <instance_material symbol="Material3" target="#ID16">
                                    <bind_vertex_input semantic="UVSET0" input_semantic="TEXCOORD" input_set="0" />
                                </instance_material>
                                <instance_material symbol="Material4" target="#ID19">
                                    <bind_vertex_input semantic="UVSET0" input_semantic="TEXCOORD" input_set="0" />
                                </instance_material>
                                <instance_material symbol="Material5" target="#ID52">
                                    <bind_vertex_input semantic="UVSET0" input_semantic="TEXCOORD" input_set="0" />
                                </instance_material>
                            </technique_common>
                        </bind_material>
                    </instance_geometry>
                </node>
            </node>
        </visual_scene>
    </library_visual_scenes>
    <library_geometries>
        <geometry id="ID4">
            <mesh>
                <source id="ID10">
                    <float_array id="ID21" count="36">7.874016 1.377953 38.18898 38.18898 1.377953 19.09449 7.874016 1.377953 19.09449 38.18898 1.377953 38.18898 38.18898 1.377953 38.18898 7.874016 1.377953 38.18898 38.18898 1.377953 19.09449 7.874016 1.377953 19.09449 38.18898 1.377953 19.09449 38.18898 1.377953 38.18898 7.874016 1.377953 19.09449 7.874016 1.377953 38.18898</float_array>
                    <technique_common>
                        <accessor count="12" source="#ID21" stride="3">
                            <param name="X" type="float" />
                            <param name="Y" type="float" />
                            <param name="Z" type="float" />
                        </accessor>
                    </technique_common>
                </source>
                <source id="ID11">
                    <float_array id="ID22" count="36">0 1 0 0 1 0 0 1 0 0 1 0 -0 -1 -0 -0 -1 -0 -0 -1 -0 -0 -1 -0 0 0 0 0 0 0 0 0 0 0 0 0</float_array>
                    <technique_common>
                        <accessor count="12" source="#ID22" stride="3">
                            <param name="X" type="float" />
                            <param name="Y" type="float" />
                            <param name="Z" type="float" />
                        </accessor>
                    </technique_common>
                </source>
                <source id="ID12">
                    <Name_array id="ID24" count="0" />
                    <technique_common>
                        <accessor count="0" source="#ID24" stride="1">
                            <param name="skp_material" type="Name" />
                        </accessor>
                    </technique_common>
                </source>
                <source id="ID14">
                    <float_array id="ID23" count="8">-5.589873 1.000078 -27.11088 0.5000391 -5.589873 0.5000391 -27.11088 1.000078</float_array>
                    <technique_common>
                        <accessor count="4" source="#ID23" stride="2">
                            <param name="S" type="float" />
                            <param name="T" type="float" />
                        </accessor>
                    </technique_common>
                </source>
                <vertices id="ID13">
                    <input semantic="POSITION" source="#ID10" />
                    <input semantic="NORMAL" source="#ID11" />
                </vertices>
                <triangles count="2" material="Material2">
                    <input offset="0" semantic="VERTEX" source="#ID13" />
                    <input offset="1" semantic="TEXCOORD" source="#ID14" />
                    <p>0 0 1 1 2 2 1 1 0 0 3 3</p>
                </triangles>
                <triangles count="2" material="Material3">
                    <input offset="0" semantic="VERTEX" source="#ID13" />
                    <p>4 5 6 7 6 5</p>
                </triangles>
                <lines count="3" material="Material4">
                    <input offset="0" semantic="VERTEX" source="#ID13" />
                    <p>8 9 10 11 9 11</p>
                </lines>
                <lines count="1" material="Material5">
                    <input offset="0" semantic="VERTEX" source="#ID13" />
                    <p>10 8</p>
                </lines>
            </mesh>
        </geometry>
        <geometry id="ID25">
            <mesh>
                <source id="ID31">
                    <float_array id="ID36" count="144">38.18898 0 38.18898 7.874016 1.377953 38.18898 7.874016 0 38.18898 38.18898 1.377953 38.18898 38.18898 1.377953 38.18898 38.18898 0 38.18898 7.874016 1.377953 38.18898 7.874016 0 38.18898 7.874016 1.377953 38.18898 7.874016 0 38.18898 38.18898 0 38.18898 38.18898 1.377953 38.18898 7.874016 1.377953 38.18898 7.874016 0 19.09449 7.874016 0 38.18898 7.874016 1.377953 19.09449 7.874016 1.377953 19.09449 7.874016 1.377953 38.18898 7.874016 0 19.09449 7.874016 0 38.18898 7.874016 1.377953 19.09449 7.874016 0 19.09449 38.18898 0 38.18898 7.874016 0 19.09449 38.18898 0 19.09449 7.874016 0 38.18898 7.874016 0 38.18898 38.18898 0 38.18898 7.874016 0 19.09449 38.18898 0 19.09449 38.18898 0 19.09449 38.18898 1.377953 19.09449 38.18898 0 38.18898 38.18898 0 19.09449 38.18898 1.377953 38.18898 38.18898 1.377953 38.18898 38.18898 1.377953 19.09449 38.18898 0 38.18898 38.18898 0 19.09449 38.18898 1.377953 19.09449 38.18898 1.377953 19.09449 7.874016 0 19.09449 7.874016 1.377953 19.09449 38.18898 0 19.09449 38.18898 0 19.09449 38.18898 1.377953 19.09449 7.874016 0 19.09449 7.874016 1.377953 19.09449</float_array>
                    <technique_common>
                        <accessor count="48" source="#ID36" stride="3">
                            <param name="X" type="float" />
                            <param name="Y" type="float" />
                            <param name="Z" type="float" />
                        </accessor>
                    </technique_common>
                </source>
                <source id="ID32">
                    <float_array id="ID37" count="144">0 0 1 0 0 1 0 0 1 0 0 1 -0 -0 -1 -0 -0 -1 -0 -0 -1 -0 -0 -1 0 0 0 0 0 0 0 0 0 0 0 0 -1 0 0 -1 0 0 -1 0 0 -1 0 0 1 -0 -0 1 -0 -0 1 -0 -0 1 -0 -0 0 0 0 0 0 0 0 -1 0 0 -1 0 0 -1 0 0 -1 0 -0 1 -0 -0 1 -0 -0 1 -0 -0 1 -0 0 0 0 1 0 0 1 0 0 1 0 0 1 0 0 -1 -0 -0 -1 -0 -0 -1 -0 -0 -1 -0 -0 0 0 0 0 0 -1 0 0 -1 0 0 -1 0 0 -1 -0 -0 1 -0 -0 1 -0 -0 1 -0 -0 1</float_array>
                    <technique_common>
                        <accessor count="48" source="#ID37" stride="3">
                            <param name="X" type="float" />
                            <param name="Y" type="float" />
                            <param name="Z" type="float" />
                        </accessor>
                    </technique_common>
                </source>
                <source id="ID33">
                    <Name_array id="ID39" count="0" />
                    <technique_common>
                        <accessor count="0" source="#ID39" stride="1">
                            <param name="skp_material" type="Name" />
                        </accessor>
                    </technique_common>
                </source>
                <source id="ID35">
                    <float_array id="ID38" count="12">0.9011383 0.9565631 0.2629367 0.9565631 0.09717005 0.9565631 0.09717004 0.5249023 0.2629367 0.5249023 0.9011383 0.5249023</float_array>
                    <technique_common>
                        <accessor count="6" source="#ID38" stride="2">
                            <param name="S" type="float" />
                            <param name="T" type="float" />
                        </accessor>
                    </technique_common>
                </source>
                <vertices id="ID34">
                    <input semantic="POSITION" source="#ID31" />
                    <input semantic="NORMAL" source="#ID32" />
                </vertices>
                <triangles count="10" material="Material3">
                    <input offset="0" semantic="VERTEX" source="#ID34" />
                    <input offset="1" semantic="TEXCOORD" source="#ID35" />
                    <p>0 0 1 1 2 1 1 1 0 0 3 0 12 2 13 3 14 2 13 3 12 2 15 3 22 0 23 4 24 5 23 4 22 0 25 1 31 5 32 0 33 5 32 0 31 5 34 0 40 5 41 4 42 4 41 4 40 5 43 5</p>
                </triangles>
                <triangles count="10" material="Material2">
                    <input offset="0" semantic="VERTEX" source="#ID34" />
                    <p>4 5 6 7 6 5 16 17 18 19 18 17 26 27 28 29 28 27 35 36 37 38 37 36 44 45 46 47 46 45</p>
                </triangles>
                <lines count="8" material="Material4">
                    <input offset="0" semantic="VERTEX" source="#ID34" />
                    <p>8 9 9 10 10 11 11 8 20 8 21 9 30 10 39 11</p>
                </lines>
                <lines count="4" material="Material5">
                    <input offset="0" semantic="VERTEX" source="#ID34" />
                    <p>21 20 21 30 30 39 20 39</p>
                </lines>
            </mesh>
        </geometry>
        <geometry id="ID41">
            <mesh>
                <source id="ID47">
                    <float_array id="ID54" count="120">0 1.377953 38.18898 0 0 19.09449 0 0 38.18898 0 1.377953 19.09449 0 1.377953 19.09449 0 1.377953 38.18898 0 0 19.09449 0 0 38.18898 0 1.377953 19.09449 0 1.377953 38.18898 0 0 19.09449 0 0 38.18898 30.31496 1.377953 19.09449 0 0 19.09449 0 1.377953 19.09449 30.31496 0 19.09449 30.31496 0 19.09449 30.31496 1.377953 19.09449 0 0 19.09449 0 1.377953 19.09449 30.31496 0 19.09449 30.31496 1.377953 19.09449 30.31496 0 38.18898 0 0 19.09449 30.31496 0 19.09449 0 0 38.18898 0 0 38.18898 30.31496 0 38.18898 0 0 19.09449 30.31496 0 19.09449 30.31496 0 38.18898 30.31496 0 38.18898 0 1.377953 38.18898 0 0 38.18898 30.31496 1.377953 38.18898 30.31496 1.377953 38.18898 30.31496 0 38.18898 0 1.377953 38.18898 0 0 38.18898 30.31496 1.377953 38.18898</float_array>
                    <technique_common>
                        <accessor count="40" source="#ID54" stride="3">
                            <param name="X" type="float" />
                            <param name="Y" type="float" />
                            <param name="Z" type="float" />
                        </accessor>
                    </technique_common>
                </source>
                <source id="ID48">
                    <float_array id="ID55" count="120">-1 0 0 -1 0 0 -1 0 0 -1 0 0 1 -0 -0 1 -0 -0 1 -0 -0 1 -0 -0 0 0 0 0 0 0 0 0 0 0 0 0 0 0 -1 0 0 -1 0 0 -1 0 0 -1 -0 -0 1 -0 -0 1 -0 -0 1 -0 -0 1 0 0 0 0 0 0 0 -1 0 0 -1 0 0 -1 0 0 -1 0 -0 1 -0 -0 1 -0 -0 1 -0 -0 1 -0 0 0 0 0 0 1 0 0 1 0 0 1 0 0 1 -0 -0 -1 -0 -0 -1 -0 -0 -1 -0 -0 -1 0 0 0</float_array>
                    <technique_common>
                        <accessor count="40" source="#ID55" stride="3">
                            <param name="X" type="float" />
                            <param name="Y" type="float" />
                            <param name="Z" type="float" />
                        </accessor>
                    </technique_common>
                </source>
                <source id="ID49">
                    <Name_array id="ID57" count="0" />
                    <technique_common>
                        <accessor count="0" source="#ID57" stride="1">
                            <param name="skp_material" type="Name" />
                        </accessor>
                    </technique_common>
                </source>
                <source id="ID51">
                    <float_array id="ID56" count="8">1.117557 0.9470971 1.117557 0.5192783 1.750078 0.5192783 1.750078 0.9470971</float_array>
                    <technique_common>
                        <accessor count="4" source="#ID56" stride="2">
                            <param name="S" type="float" />
                            <param name="T" type="float" />
                        </accessor>
                    </technique_common>
                </source>
                <vertices id="ID50">
                    <input semantic="POSITION" source="#ID47" />
                    <input semantic="NORMAL" source="#ID48" />
                </vertices>
                <triangles count="8" material="Material3">
                    <input offset="0" semantic="VERTEX" source="#ID50" />
                    <input offset="1" semantic="TEXCOORD" source="#ID51" />
                    <p>0 0 1 1 2 0 1 1 0 0 3 1 12 2 13 1 14 1 13 1 12 2 15 2 22 3 23 1 24 2 23 1 22 3 25 0 31 3 32 0 33 0 32 0 31 3 34 3</p>
                </triangles>
                <triangles count="8" material="Material2">
                    <input offset="0" semantic="VERTEX" source="#ID50" />
                    <p>4 5 6 7 6 5 16 17 18 19 18 17 26 27 28 29 28 27 35 36 37 38 37 36</p>
                </triangles>
                <lines count="7" material="Material5">
                    <input offset="0" semantic="VERTEX" source="#ID50" />
                    <p>8 9 10 11 9 11 20 30 11 30 30 39 39 9</p>
                </lines>
                <lines count="4" material="Material4">
                    <input offset="0" semantic="VERTEX" source="#ID50" />
                    <p>10 8 10 20 8 21 20 21</p>
                </lines>
            </mesh>
        </geometry>
        <geometry id="ID58">
            <mesh>
                <source id="ID59">
                    <float_array id="ID64" count="66">0 1.377953 38.18898 30.31496 1.377953 19.09449 0 1.377953 19.09449 30.31496 1.377953 38.18898 30.31496 1.377953 38.18898 0 1.377953 38.18898 30.31496 1.377953 19.09449 0 1.377953 19.09449 30.31496 1.377953 19.09449 30.31496 1.377953 38.18898 0 1.377953 19.09449 0 1.377953 38.18898 30.31496 1.377953 19.09449 30.31496 0 38.18898 30.31496 0 19.09449 30.31496 1.377953 38.18898 30.31496 1.377953 38.18898 30.31496 1.377953 19.09449 30.31496 0 38.18898 30.31496 0 19.09449 30.31496 0 19.09449 30.31496 0 38.18898</float_array>
                    <technique_common>
                        <accessor count="22" source="#ID64" stride="3">
                            <param name="X" type="float" />
                            <param name="Y" type="float" />
                            <param name="Z" type="float" />
                        </accessor>
                    </technique_common>
                </source>
                <source id="ID60">
                    <float_array id="ID65" count="66">0 1 0 0 1 0 0 1 0 0 1 0 -0 -1 -0 -0 -1 -0 -0 -1 -0 -0 -1 -0 0 0 0 0 0 0 0 0 0 0 0 0 1 0 0 1 0 0 1 0 0 1 0 0 -1 -0 -0 -1 -0 -0 -1 -0 -0 -1 -0 -0 0 0 0 0 0 0</float_array>
                    <technique_common>
                        <accessor count="22" source="#ID65" stride="3">
                            <param name="X" type="float" />
                            <param name="Y" type="float" />
                            <param name="Z" type="float" />
                        </accessor>
                    </technique_common>
                </source>
                <source id="ID61">
                    <Name_array id="ID67" count="0" />
                    <technique_common>
                        <accessor count="0" source="#ID67" stride="1">
                            <param name="skp_material" type="Name" />
                        </accessor>
                    </technique_common>
                </source>
                <source id="ID63">
                    <float_array id="ID66" count="16">-30.1928 1.000078 -51.71381 0.5000391 -30.1928 0.5000391 -51.71381 1.000078 0.9782278 0.5000391 0 1.000078 0 0.5000391 0.9782278 1.000078</float_array>
                    <technique_common>
                        <accessor count="8" source="#ID66" stride="2">
                            <param name="S" type="float" />
                            <param name="T" type="float" />
                        </accessor>
                    </technique_common>
                </source>
                <vertices id="ID62">
                    <input semantic="POSITION" source="#ID59" />
                    <input semantic="NORMAL" source="#ID60" />
                </vertices>
                <triangles count="4" material="Material2">
                    <input offset="0" semantic="VERTEX" source="#ID62" />
                    <input offset="1" semantic="TEXCOORD" source="#ID63" />
                    <p>0 0 1 1 2 2 1 1 0 0 3 3 12 4 13 5 14 6 13 5 12 4 15 7</p>
                </triangles>
                <triangles count="4" material="Material3">
                    <input offset="0" semantic="VERTEX" source="#ID62" />
                    <p>4 5 6 7 6 5 16 17 18 19 18 17</p>
                </triangles>
                <lines count="5" material="Material5">
                    <input offset="0" semantic="VERTEX" source="#ID62" />
                    <p>8 9 10 11 9 11 21 9 20 21</p>
                </lines>
                <lines count="2" material="Material4">
                    <input offset="0" semantic="VERTEX" source="#ID62" />
                    <p>10 8 20 8</p>
                </lines>
            </mesh>
        </geometry>
        <geometry id="ID69">
            <mesh>
                <source id="ID70">
                    <float_array id="ID75" count="36">7.874016 1.377953 19.09449 38.18898 1.377953 0 7.874016 1.377953 0 38.18898 1.377953 19.09449 38.18898 1.377953 19.09449 7.874016 1.377953 19.09449 38.18898 1.377953 0 7.874016 1.377953 0 38.18898 1.377953 0 7.874016 1.377953 0 7.874016 1.377953 19.09449 38.18898 1.377953 19.09449</float_array>
                    <technique_common>
                        <accessor count="12" source="#ID75" stride="3">
                            <param name="X" type="float" />
                            <param name="Y" type="float" />
                            <param name="Z" type="float" />
                        </accessor>
                    </technique_common>
                </source>
                <source id="ID71">
                    <float_array id="ID76" count="36">0 1 0 0 1 0 0 1 0 0 1 0 -0 -1 -0 -0 -1 -0 -0 -1 -0 -0 -1 -0 0 0 0 0 0 0 0 0 0 0 0 0</float_array>
                    <technique_common>
                        <accessor count="12" source="#ID76" stride="3">
                            <param name="X" type="float" />
                            <param name="Y" type="float" />
                            <param name="Z" type="float" />
                        </accessor>
                    </technique_common>
                </source>
                <source id="ID72">
                    <Name_array id="ID78" count="0" />
                    <technique_common>
                        <accessor count="0" source="#ID78" stride="1">
                            <param name="skp_material" type="Name" />
                        </accessor>
                    </technique_common>
                </source>
                <source id="ID74">
                    <float_array id="ID77" count="8">-5.589873 0.5000391 -27.11088 0 -5.589873 0 -27.11088 0.5000391</float_array>
                    <technique_common>
                        <accessor count="4" source="#ID77" stride="2">
                            <param name="S" type="float" />
                            <param name="T" type="float" />
                        </accessor>
                    </technique_common>
                </source>
                <vertices id="ID73">
                    <input semantic="POSITION" source="#ID70" />
                    <input semantic="NORMAL" source="#ID71" />
                </vertices>
                <triangles count="2" material="Material2">
                    <input offset="0" semantic="VERTEX" source="#ID73" />
                    <input offset="1" semantic="TEXCOORD" source="#ID74" />
                    <p>0 0 1 1 2 2 1 1 0 0 3 3</p>
                </triangles>
                <triangles count="2" material="Material3">
                    <input offset="0" semantic="VERTEX" source="#ID73" />
                    <p>4 5 6 7 6 5</p>
                </triangles>
                <lines count="3" material="Material4">
                    <input offset="0" semantic="VERTEX" source="#ID73" />
                    <p>8 9 9 10 8 11</p>
                </lines>
                <lines count="1" material="Material5">
                    <input offset="0" semantic="VERTEX" source="#ID73" />
                    <p>11 10</p>
                </lines>
            </mesh>
        </geometry>
        <geometry id="ID79">
            <mesh>
                <source id="ID80">
                    <float_array id="ID85" count="144">7.874016 1.377953 19.09449 7.874016 0 0 7.874016 0 19.09449 7.874016 1.377953 0 7.874016 1.377953 0 7.874016 1.377953 19.09449 7.874016 0 0 7.874016 0 19.09449 7.874016 0 19.09449 7.874016 1.377953 19.09449 7.874016 1.377953 0 7.874016 0 0 38.18898 0 19.09449 7.874016 1.377953 19.09449 7.874016 0 19.09449 38.18898 1.377953 19.09449 38.18898 1.377953 19.09449 38.18898 0 19.09449 7.874016 1.377953 19.09449 7.874016 0 19.09449 38.18898 0 19.09449 38.18898 1.377953 19.09449 38.18898 1.377953 0 7.874016 0 0 7.874016 1.377953 0 38.18898 0 0 38.18898 0 0 38.18898 1.377953 0 7.874016 0 0 7.874016 1.377953 0 38.18898 1.377953 0 38.18898 0 0 38.18898 0 19.09449 7.874016 0 0 38.18898 0 0 7.874016 0 19.09449 7.874016 0 19.09449 38.18898 0 19.09449 7.874016 0 0 38.18898 0 0 38.18898 1.377953 0 38.18898 0 19.09449 38.18898 0 0 38.18898 1.377953 19.09449 38.18898 1.377953 19.09449 38.18898 1.377953 0 38.18898 0 19.09449 38.18898 0 0</float_array>
                    <technique_common>
                        <accessor count="48" source="#ID85" stride="3">
                            <param name="X" type="float" />
                            <param name="Y" type="float" />
                            <param name="Z" type="float" />
                        </accessor>
                    </technique_common>
                </source>
                <source id="ID81">
                    <float_array id="ID86" count="144">-1 0 0 -1 0 0 -1 0 0 -1 0 0 1 -0 -0 1 -0 -0 1 -0 -0 1 -0 -0 0 0 0 0 0 0 0 0 0 0 0 0 0 0 1 0 0 1 0 0 1 0 0 1 -0 -0 -1 -0 -0 -1 -0 -0 -1 -0 -0 -1 0 0 0 0 0 0 0 0 -1 0 0 -1 0 0 -1 0 0 -1 -0 -0 1 -0 -0 1 -0 -0 1 -0 -0 1 0 0 0 0 0 0 0 -1 0 0 -1 0 0 -1 0 0 -1 0 -0 1 -0 -0 1 -0 -0 1 -0 -0 1 -0 1 0 0 1 0 0 1 0 0 1 0 0 -1 -0 -0 -1 -0 -0 -1 -0 -0 -1 -0 -0</float_array>
                    <technique_common>
                        <accessor count="48" source="#ID86" stride="3">
                            <param name="X" type="float" />
                            <param name="Y" type="float" />
                            <param name="Z" type="float" />
                        </accessor>
                    </technique_common>
                </source>
                <source id="ID82">
                    <Name_array id="ID88" count="0" />
                    <technique_common>
                        <accessor count="0" source="#ID88" stride="1">
                            <param name="skp_material" type="Name" />
                        </accessor>
                    </technique_common>
                </source>
                <source id="ID84">
                    <float_array id="ID87" count="12">0.09717004 0.5249023 0.09717003 0.09324151 0.9011383 0.5249023 0.2629367 0.5249023 0.9011383 0.09324151 0.2629367 0.09324151</float_array>
                    <technique_common>
                        <accessor count="6" source="#ID87" stride="2">
                            <param name="S" type="float" />
                            <param name="T" type="float" />
                        </accessor>
                    </technique_common>
                </source>
                <vertices id="ID83">
                    <input semantic="POSITION" source="#ID80" />
                    <input semantic="NORMAL" source="#ID81" />
                </vertices>
                <triangles count="10" material="Material3">
                    <input offset="0" semantic="VERTEX" source="#ID83" />
                    <input offset="1" semantic="TEXCOORD" source="#ID84" />
                    <p>0 0 1 1 2 0 1 1 0 0 3 1 12 2 13 3 14 3 13 3 12 2 15 2 22 4 23 5 24 5 23 5 22 4 25 4 32 2 33 5 34 4 33 5 32 2 35 3 40 4 41 2 42 4 41 2 40 4 43 2</p>
                </triangles>
                <triangles count="10" material="Material2">
                    <input offset="0" semantic="VERTEX" source="#ID83" />
                    <p>4 5 6 7 6 5 16 17 18 19 18 17 26 27 28 29 28 27 36 37 38 39 38 37 44 45 46 47 46 45</p>
                </triangles>
                <lines count="4" material="Material5">
                    <input offset="0" semantic="VERTEX" source="#ID83" />
                    <p>8 9 20 8 20 21 21 9</p>
                </lines>
                <lines count="8" material="Material4">
                    <input offset="0" semantic="VERTEX" source="#ID83" />
                    <p>10 9 10 11 11 8 30 10 31 30 11 31 31 20 30 21</p>
                </lines>
            </mesh>
        </geometry>
        <geometry id="ID90">
            <mesh>
                <source id="ID91">
                    <float_array id="ID96" count="120">30.31496 1.377953 0 0 0 0 0 1.377953 0 30.31496 0 0 30.31496 0 0 30.31496 1.377953 0 0 0 0 0 1.377953 0 0 1.377953 0 0 0 0 30.31496 1.377953 0 30.31496 0 0 0 1.377953 19.09449 0 0 0 0 0 19.09449 0 1.377953 0 0 1.377953 0 0 1.377953 19.09449 0 0 0 0 0 19.09449 0 0 19.09449 0 1.377953 19.09449 30.31496 0 19.09449 0 0 0 30.31496 0 0 0 0 19.09449 0 0 19.09449 30.31496 0 19.09449 0 0 0 30.31496 0 0 30.31496 0 19.09449 30.31496 0 19.09449 0 1.377953 19.09449 0 0 19.09449 30.31496 1.377953 19.09449 30.31496 1.377953 19.09449 30.31496 0 19.09449 0 1.377953 19.09449 0 0 19.09449 30.31496 1.377953 19.09449</float_array>
                    <technique_common>
                        <accessor count="40" source="#ID96" stride="3">
                            <param name="X" type="float" />
                            <param name="Y" type="float" />
                            <param name="Z" type="float" />
                        </accessor>
                    </technique_common>
                </source>
                <source id="ID92">
                    <float_array id="ID97" count="120">0 0 -1 0 0 -1 0 0 -1 0 0 -1 -0 -0 1 -0 -0 1 -0 -0 1 -0 -0 1 0 0 0 0 0 0 0 0 0 0 0 0 -1 0 0 -1 0 0 -1 0 0 -1 0 0 1 -0 -0 1 -0 -0 1 -0 -0 1 -0 -0 0 0 0 0 0 0 0 -1 0 0 -1 0 0 -1 0 0 -1 0 -0 1 -0 -0 1 -0 -0 1 -0 -0 1 -0 0 0 0 0 0 1 0 0 1 0 0 1 0 0 1 -0 -0 -1 -0 -0 -1 -0 -0 -1 -0 -0 -1 0 0 0</float_array>
                    <technique_common>
                        <accessor count="40" source="#ID97" stride="3">
                            <param name="X" type="float" />
                            <param name="Y" type="float" />
                            <param name="Z" type="float" />
                        </accessor>
                    </technique_common>
                </source>
                <source id="ID93">
                    <Name_array id="ID99" count="0" />
                    <technique_common>
                        <accessor count="0" source="#ID99" stride="1">
                            <param name="skp_material" type="Name" />
                        </accessor>
                    </technique_common>
                </source>
                <source id="ID95">
                    <float_array id="ID98" count="8">1.750078 0.09145941 1.117557 0.09145941 1.117557 0.5192783 1.750078 0.5192783</float_array>
                    <technique_common>
                        <accessor count="4" source="#ID98" stride="2">
                            <param name="S" type="float" />
                            <param name="T" type="float" />
                        </accessor>
                    </technique_common>
                </source>
                <vertices id="ID94">
                    <input semantic="POSITION" source="#ID91" />
                    <input semantic="NORMAL" source="#ID92" />
                </vertices>
                <triangles count="8" material="Material3">
                    <input offset="0" semantic="VERTEX" source="#ID94" />
                    <input offset="1" semantic="TEXCOORD" source="#ID95" />
                    <p>0 0 1 1 2 1 1 1 0 0 3 0 12 2 13 1 14 2 13 1 12 2 15 1 22 3 23 1 24 0 23 1 22 3 25 2 31 3 32 2 33 2 32 2 31 3 34 3</p>
                </triangles>
                <triangles count="8" material="Material2">
                    <input offset="0" semantic="VERTEX" source="#ID94" />
                    <p>4 5 6 7 6 5 16 17 18 19 18 17 26 27 28 29 28 27 35 36 37 38 37 36</p>
                </triangles>
                <lines count="7" material="Material5">
                    <input offset="0" semantic="VERTEX" source="#ID94" />
                    <p>8 9 10 8 11 10 9 11 8 21 9 20 11 30</p>
                </lines>
                <lines count="4" material="Material4">
                    <input offset="0" semantic="VERTEX" source="#ID94" />
                    <p>20 21 20 30 30 39 21 39</p>
                </lines>
            </mesh>
        </geometry>
        <geometry id="ID100">
            <mesh>
                <source id="ID101">
                    <float_array id="ID106" count="66">0 1.377953 19.09449 30.31496 1.377953 0 0 1.377953 0 30.31496 1.377953 19.09449 30.31496 1.377953 19.09449 0 1.377953 19.09449 30.31496 1.377953 0 0 1.377953 0 30.31496 1.377953 0 0 1.377953 0 0 1.377953 19.09449 30.31496 1.377953 19.09449 30.31496 1.377953 0 30.31496 0 19.09449 30.31496 0 0 30.31496 1.377953 19.09449 30.31496 1.377953 19.09449 30.31496 1.377953 0 30.31496 0 19.09449 30.31496 0 0 30.31496 0 19.09449 30.31496 0 0</float_array>
                    <technique_common>
                        <accessor count="22" source="#ID106" stride="3">
                            <param name="X" type="float" />
                            <param name="Y" type="float" />
                            <param name="Z" type="float" />
                        </accessor>
                    </technique_common>
                </source>
                <source id="ID102">
                    <float_array id="ID107" count="66">1.511581e-50 1 -7.212123e-34 1.511581e-50 1 -7.212123e-34 1.511581e-50 1 -7.212123e-34 1.511581e-50 1 -7.212123e-34 -1.511581e-50 -1 7.212123e-34 -1.511581e-50 -1 7.212123e-34 -1.511581e-50 -1 7.212123e-34 -1.511581e-50 -1 7.212123e-34 0 0 0 0 0 0 0 0 0 0 0 0 1 0 0 1 0 0 1 0 0 1 0 0 -1 -0 -0 -1 -0 -0 -1 -0 -0 -1 -0 -0 0 0 0 0 0 0</float_array>
                    <technique_common>
                        <accessor count="22" source="#ID107" stride="3">
                            <param name="X" type="float" />
                            <param name="Y" type="float" />
                            <param name="Z" type="float" />
                        </accessor>
                    </technique_common>
                </source>
                <source id="ID103">
                    <Name_array id="ID109" count="0" />
                    <technique_common>
                        <accessor count="0" source="#ID109" stride="1">
                            <param name="skp_material" type="Name" />
                        </accessor>
                    </technique_common>
                </source>
                <source id="ID105">
                    <float_array id="ID108" count="16">-30.1928 0.5000391 -51.71381 2.602516e-35 -30.1928 2.602516e-35 -51.71381 0.5000391 0.9782278 0 0 0.5000391 0 0 0.9782278 0.5000391</float_array>
                    <technique_common>
                        <accessor count="8" source="#ID108" stride="2">
                            <param name="S" type="float" />
                            <param name="T" type="float" />
                        </accessor>
                    </technique_common>
                </source>
                <vertices id="ID104">
                    <input semantic="POSITION" source="#ID101" />
                    <input semantic="NORMAL" source="#ID102" />
                </vertices>
                <triangles count="4" material="Material2">
                    <input offset="0" semantic="VERTEX" source="#ID104" />
                    <input offset="1" semantic="TEXCOORD" source="#ID105" />
                    <p>0 0 1 1 2 2 1 1 0 0 3 3 12 4 13 5 14 6 13 5 12 4 15 7</p>
                </triangles>
                <triangles count="4" material="Material3">
                    <input offset="0" semantic="VERTEX" source="#ID104" />
                    <p>4 5 6 7 6 5 16 17 18 19 18 17</p>
                </triangles>
                <lines count="5" material="Material5">
                    <input offset="0" semantic="VERTEX" source="#ID104" />
                    <p>8 9 9 10 8 11 21 20 21 8</p>
                </lines>
                <lines count="2" material="Material4">
                    <input offset="0" semantic="VERTEX" source="#ID104" />
                    <p>10 11 20 11</p>
                </lines>
            </mesh>
        </geometry>
    </library_geometries>
    <library_materials>
        <material id="ID5" name="_2">
            <instance_effect url="#ID6" />
        </material>
        <material id="ID16" name="material">
            <instance_effect url="#ID15" />
        </material>
        <material id="ID17" name="edge_color191192188255">
            <instance_effect url="#ID18" />
        </material>
        <material id="ID19" name="edge_color000255">
            <instance_effect url="#ID20" />
        </material>
        <material id="ID26" name="material_1">
            <instance_effect url="#ID27" />
        </material>
        <material id="ID42" name="material_2">
            <instance_effect url="#ID43" />
        </material>
        <material id="ID52" name="edge_color183184180255">
            <instance_effect url="#ID53" />
        </material>
    </library_materials>
    <library_effects>
        <effect id="ID6">
            <profile_COMMON>
                <newparam sid="ID8">
                    <surface type="2D">
                        <init_from>ID7</init_from>
                    </surface>
                </newparam>
                <newparam sid="ID9">
                    <sampler2D>
                        <source>ID8</source>
                    </sampler2D>
                </newparam>
                <technique sid="COMMON">
                    <lambert>
                        <diffuse>
                            <texture texture="ID9" texcoord="UVSET0" />
                        </diffuse>
                    </lambert>
                </technique>
            </profile_COMMON>
        </effect>
        <effect id="ID15">
            <profile_COMMON>
                <technique sid="COMMON">
                    <lambert>
                        <diffuse>
                            <color>0.6431373 0.6980392 0.7333333 1</color>
                        </diffuse>
                    </lambert>
                </technique>
            </profile_COMMON>
        </effect>
        <effect id="ID18">
            <profile_COMMON>
                <technique sid="COMMON">
                    <constant>
                        <transparent opaque="A_ONE">
                            <color>0.7490196 0.7529412 0.7372549 1</color>
                        </transparent>
                        <transparency>
                            <float>1</float>
                        </transparency>
                    </constant>
                </technique>
            </profile_COMMON>
        </effect>
        <effect id="ID20">
            <profile_COMMON>
                <technique sid="COMMON">
                    <constant>
                        <transparent opaque="A_ONE">
                            <color>0 0 0 1</color>
                        </transparent>
                        <transparency>
                            <float>1</float>
                        </transparency>
                    </constant>
                </technique>
            </profile_COMMON>
        </effect>
        <effect id="ID27">
            <profile_COMMON>
                <newparam sid="ID29">
                    <surface type="2D">
                        <init_from>ID28</init_from>
                    </surface>
                </newparam>
                <newparam sid="ID30">
                    <sampler2D>
                        <source>ID29</source>
                    </sampler2D>
                </newparam>
                <technique sid="COMMON">
                    <lambert>
                        <diffuse>
                            <texture texture="ID30" texcoord="UVSET0" />
                        </diffuse>
                    </lambert>
                </technique>
            </profile_COMMON>
        </effect>
        <effect id="ID43">
            <profile_COMMON>
                <newparam sid="ID45">
                    <surface type="2D">
                        <init_from>ID44</init_from>
                    </surface>
                </newparam>
                <newparam sid="ID46">
                    <sampler2D>
                        <source>ID45</source>
                    </sampler2D>
                </newparam>
                <technique sid="COMMON">
                    <lambert>
                        <diffuse>
                            <texture texture="ID46" texcoord="UVSET0" />
                        </diffuse>
                    </lambert>
                </technique>
            </profile_COMMON>
        </effect>
        <effect id="ID53">
            <profile_COMMON>
                <technique sid="COMMON">
                    <constant>
                        <transparent opaque="A_ONE">
                            <color>0.7176471 0.7215686 0.7058824 1</color>
                        </transparent>
                        <transparency>
                            <float>1</float>
                        </transparency>
                    </constant>
                </technique>
            </profile_COMMON>
        </effect>
    </library_effects>
    <library_images>
        <image id="ID7">
            <init_from>model/_2.jpg</init_from>
        </image>
        <image id="ID28">
            <init_from>model/material_1.jpg</init_from>
        </image>
        <image id="ID44">
            <init_from>model/material_2.jpg</init_from>
        </image>
    </library_images>
    <scene>
        <instance_visual_scene url="#ID2" />
    </scene>
</COLLADA>
