<?xml version="1.0" encoding="UTF-8" standalone="no" ?>
<COLLADA xmlns="http://www.collada.org/2005/11/COLLADASchema" version="1.4.1">
    <asset>
        <contributor>
            <authoring_tool>SketchUp 16.0.1</authoring_tool>
        </contributor>
        <created>2020-01-15T17:29:30Z</created>
        <modified>2020-01-15T17:29:30Z</modified>
        <unit meter="0.0254" name="inch" />
        <up_axis>Z_UP</up_axis>
    </asset>
    <library_cameras>
        <camera id="ID1" name="skp_camera_Last_Saved_SketchUp_View">
            <optics>
                <technique_common>
                    <perspective>
                        <yfov>35</yfov>
                        <aspect_ratio>0</aspect_ratio>
                        <znear>1</znear>
                        <zfar>1000</zfar>
                    </perspective>
                </technique_common>
            </optics>
        </camera>
    </library_cameras>
    <library_visual_scenes>
        <visual_scene id="ID2">
            <node name="SketchUp">
                <instance_geometry url="#ID68">
                    <bind_material>
                        <technique_common>
                            <instance_material symbol="Material2" target="#ID13">
                                <bind_vertex_input semantic="UVSET0" input_semantic="TEXCOORD" input_set="0" />
                            </instance_material>
                        </technique_common>
                    </bind_material>
                </instance_geometry>
                <node name="skp_camera_Last_Saved_SketchUp_View">
                    <matrix>0.9392238 0.02169432 -0.3426193 7.031976 -0.3433055 0.05935188 -0.9373466 -31.05583 0 0.9980013 0.06319248 11.30495 0 0 0 1</matrix>
                    <instance_camera url="#ID1" />
                </node>
                <node id="ID3" name="group_0">
                    <matrix>0.9913194 0 0 0.15625 0 1 0 -1.39621 0 0 0.979506 0.1856324 0 0 0 1</matrix>
                    <instance_geometry url="#ID4">
                        <bind_material>
                            <technique_common>
                                <instance_material symbol="Material2" target="#ID6">
                                    <bind_vertex_input semantic="UVSET0" input_semantic="TEXCOORD" input_set="0" />
                                </instance_material>
                                <instance_material symbol="Material3" target="#ID12">
                                    <bind_vertex_input semantic="UVSET0" input_semantic="TEXCOORD" input_set="0" />
                                </instance_material>
                                <instance_material symbol="Material4" target="#ID13">
                                    <bind_vertex_input semantic="UVSET0" input_semantic="TEXCOORD" input_set="0" />
                                </instance_material>
                            </technique_common>
                        </bind_material>
                    </instance_geometry>
                    <instance_geometry url="#ID18">
                        <bind_material>
                            <technique_common>
                                <instance_material symbol="Material2" target="#ID12">
                                    <bind_vertex_input semantic="UVSET0" input_semantic="TEXCOORD" input_set="0" />
                                </instance_material>
                                <instance_material symbol="Material3" target="#ID19">
                                    <bind_vertex_input semantic="UVSET0" input_semantic="TEXCOORD" input_set="0" />
                                </instance_material>
                                <instance_material symbol="Material4" target="#ID13">
                                    <bind_vertex_input semantic="UVSET0" input_semantic="TEXCOORD" input_set="0" />
                                </instance_material>
                            </technique_common>
                        </bind_material>
                    </instance_geometry>
                </node>
                <node id="ID33" name="Astragal">
                    <matrix>0 -0 -1 0 -1 0 -0 -0.6981049 0 1 -0 0 0 0 0 1</matrix>
                    <instance_geometry url="#ID34">
                        <bind_material>
                            <technique_common>
                                <instance_material symbol="Material2" target="#ID35">
                                    <bind_vertex_input semantic="UVSET0" input_semantic="TEXCOORD" input_set="0" />
                                </instance_material>
                                <instance_material symbol="Material3" target="#ID13">
                                    <bind_vertex_input semantic="UVSET0" input_semantic="TEXCOORD" input_set="0" />
                                </instance_material>
                            </technique_common>
                        </bind_material>
                    </instance_geometry>
                    <instance_geometry url="#ID44">
                        <bind_material>
                            <technique_common>
                                <instance_material symbol="Material2" target="#ID35">
                                    <bind_vertex_input semantic="UVSET0" input_semantic="TEXCOORD" input_set="0" />
                                </instance_material>
                                <instance_material symbol="Material3" target="#ID13">
                                    <bind_vertex_input semantic="UVSET0" input_semantic="TEXCOORD" input_set="0" />
                                </instance_material>
                            </technique_common>
                        </bind_material>
                    </instance_geometry>
                    <instance_geometry url="#ID52">
                        <bind_material>
                            <technique_common>
                                <instance_material symbol="Material2" target="#ID35">
                                    <bind_vertex_input semantic="UVSET0" input_semantic="TEXCOORD" input_set="0" />
                                </instance_material>
                                <instance_material symbol="Material3" target="#ID13">
                                    <bind_vertex_input semantic="UVSET0" input_semantic="TEXCOORD" input_set="0" />
                                </instance_material>
                            </technique_common>
                        </bind_material>
                    </instance_geometry>
                    <instance_geometry url="#ID60">
                        <bind_material>
                            <technique_common>
                                <instance_material symbol="Material2" target="#ID35">
                                    <bind_vertex_input semantic="UVSET0" input_semantic="TEXCOORD" input_set="0" />
                                </instance_material>
                                <instance_material symbol="Material3" target="#ID13">
                                    <bind_vertex_input semantic="UVSET0" input_semantic="TEXCOORD" input_set="0" />
                                </instance_material>
                            </technique_common>
                        </bind_material>
                    </instance_geometry>
                </node>
            </node>
        </visual_scene>
    </library_visual_scenes>
    <library_geometries>
        <geometry id="ID4">
            <mesh>
                <source id="ID7">
                    <float_array id="ID15" count="144">0 0.6981049 18.56324 36 0.6981049 0 0 0.6981049 0 36 0.6981049 18.56324 36 0.6981049 18.56324 0 0.6981049 18.56324 36 0.6981049 0 0 0.6981049 0 0 0.6981049 18.56324 0 0.6981049 0 36 0.6981049 18.56324 36 0.6981049 0 0 0.6981049 18.56324 0 0 0 0 0 18.56324 0 0.6981049 0 0 0.6981049 0 0 0.6981049 18.56324 0 0 0 0 0 18.56324 0 0 0 0 0 18.56324 36 0 18.56324 0 0.6981049 18.56324 0 0 18.56324 36 0.6981049 18.56324 36 0.6981049 18.56324 36 0 18.56324 0 0.6981049 18.56324 0 0 18.56324 36 0 18.56324 36 0.6981049 0 36 0 18.56324 36 0 0 36 0.6981049 18.56324 36 0.6981049 18.56324 36 0.6981049 0 36 0 18.56324 36 0 0 36 0 0 36 0.6981049 0 0 0 0 0 0.6981049 0 36 0 0 36 0 0 36 0.6981049 0 0 0 0 0 0.6981049 0</float_array>
                    <technique_common>
                        <accessor count="48" source="#ID15" stride="3">
                            <param name="X" type="float" />
                            <param name="Y" type="float" />
                            <param name="Z" type="float" />
                        </accessor>
                    </technique_common>
                </source>
                <source id="ID8">
                    <float_array id="ID16" count="144">0 1 0 0 1 0 0 1 0 0 1 0 -0 -1 -0 -0 -1 -0 -0 -1 -0 -0 -1 -0 0 0 0 0 0 0 0 0 0 0 0 0 -1 0 0 -1 0 0 -1 0 0 -1 0 0 1 -0 -0 1 -0 -0 1 -0 -0 1 -0 -0 0 0 0 0 0 0 0 0 1 0 0 1 0 0 1 0 0 1 -0 -0 -1 -0 -0 -1 -0 -0 -1 -0 -0 -1 0 0 0 1 0 0 1 0 0 1 0 0 1 0 0 -1 -0 -0 -1 -0 -0 -1 -0 -0 -1 -0 -0 0 0 0 0 0 -1 0 0 -1 0 0 -1 0 0 -1 -0 -0 1 -0 -0 1 -0 -0 1 -0 -0 1</float_array>
                    <technique_common>
                        <accessor count="48" source="#ID16" stride="3">
                            <param name="X" type="float" />
                            <param name="Y" type="float" />
                            <param name="Z" type="float" />
                        </accessor>
                    </technique_common>
                </source>
                <source id="ID9">
                    <Name_array id="ID17" count="0" />
                    <technique_common>
                        <accessor count="0" source="#ID17" stride="1">
                            <param name="skp_material" type="Name" />
                        </accessor>
                    </technique_common>
                </source>
                <vertices id="ID10">
                    <input semantic="POSITION" source="#ID7" />
                    <input semantic="NORMAL" source="#ID8" />
                </vertices>
                <triangles count="10" material="Material2">
                    <input offset="0" semantic="VERTEX" source="#ID10" />
                    <p>0 1 2 1 0 3 12 13 14 13 12 15 22 23 24 23 22 25 31 32 33 32 31 34 40 41 42 41 40 43</p>
                </triangles>
                <triangles count="10" material="Material3">
                    <input offset="0" semantic="VERTEX" source="#ID10" />
                    <p>4 5 6 7 6 5 16 17 18 19 18 17 26 27 28 29 28 27 35 36 37 38 37 36 44 45 46 47 46 45</p>
                </triangles>
                <lines count="12" material="Material4">
                    <input offset="0" semantic="VERTEX" source="#ID10" />
                    <p>8 9 10 8 11 10 9 11 9 20 21 20 8 21 30 21 10 30 39 30 11 39 20 39</p>
                </lines>
            </mesh>
        </geometry>
        <geometry id="ID18">
            <mesh>
                <source id="ID24">
                    <float_array id="ID29" count="36">36 0 18.56324 0 0 0 36 0 0 0 0 18.56324 0 0 18.56324 36 0 18.56324 0 0 0 36 0 0 0 0 18.56324 0 0 0 36 0 0 36 0 18.56324</float_array>
                    <technique_common>
                        <accessor count="12" source="#ID29" stride="3">
                            <param name="X" type="float" />
                            <param name="Y" type="float" />
                            <param name="Z" type="float" />
                        </accessor>
                    </technique_common>
                </source>
                <source id="ID25">
                    <float_array id="ID30" count="36">0 -1 0 0 -1 0 0 -1 0 0 -1 0 -0 1 -0 -0 1 -0 -0 1 -0 -0 1 -0 0 0 0 0 0 0 0 0 0 0 0 0</float_array>
                    <technique_common>
                        <accessor count="12" source="#ID30" stride="3">
                            <param name="X" type="float" />
                            <param name="Y" type="float" />
                            <param name="Z" type="float" />
                        </accessor>
                    </technique_common>
                </source>
                <source id="ID26">
                    <Name_array id="ID32" count="0" />
                    <technique_common>
                        <accessor count="0" source="#ID32" stride="1">
                            <param name="skp_material" type="Name" />
                        </accessor>
                    </technique_common>
                </source>
                <source id="ID28">
                    <float_array id="ID31" count="8">1.000046 -1.110223e-16 0 -1 1.000046 -1 0 -1.110223e-16</float_array>
                    <technique_common>
                        <accessor count="4" source="#ID31" stride="2">
                            <param name="S" type="float" />
                            <param name="T" type="float" />
                        </accessor>
                    </technique_common>
                </source>
                <vertices id="ID27">
                    <input semantic="POSITION" source="#ID24" />
                    <input semantic="NORMAL" source="#ID25" />
                </vertices>
                <triangles count="2" material="Material3">
                    <input offset="0" semantic="VERTEX" source="#ID27" />
                    <input offset="1" semantic="TEXCOORD" source="#ID28" />
                    <p>0 0 1 1 2 2 1 1 0 0 3 3</p>
                </triangles>
                <triangles count="2" material="Material2">
                    <input offset="0" semantic="VERTEX" source="#ID27" />
                    <p>4 5 6 7 6 5</p>
                </triangles>
                <lines count="4" material="Material4">
                    <input offset="0" semantic="VERTEX" source="#ID27" />
                    <p>8 9 9 10 10 11 11 8</p>
                </lines>
            </mesh>
        </geometry>
        <geometry id="ID34">
            <mesh>
                <source id="ID37">
                    <float_array id="ID41" count="804">1.093378 0.3833576 -35.61664 1.121904 0.368411 -0.368411 1.121904 0.368411 -35.63159 1.093378 0.3833576 -0.3833576 1.093378 0.3833576 -0.3833576 1.093378 0.3833576 -35.61664 1.121904 0.368411 -0.368411 1.121904 0.368411 -35.63159 1.093378 0.3833576 -0.3833576 1.121904 0.368411 -0.368411 1.121904 0.368411 -35.63159 1.093378 0.3833576 -35.61664 1.121904 18.19483 -0.368411 1.093378 0.3833576 -0.3833576 1.093378 18.17989 -0.3833576 1.121904 0.368411 -0.368411 1.121904 0.368411 -0.368411 1.121904 18.19483 -0.368411 1.093378 0.3833576 -0.3833576 1.093378 18.17989 -0.3833576 1.121904 18.19483 -0.368411 1.093378 18.17989 -0.3833576 1.148416 0.3501274 -0.3501274 1.148416 0.3501274 -35.64987 1.148416 0.3501274 -0.3501274 1.148416 0.3501274 -35.64987 1.148416 0.3501274 -0.3501274 1.148416 0.3501274 -35.64987 1.121904 0.368411 -35.63159 1.093378 18.17989 -35.61664 1.093378 0.3833576 -35.61664 1.121904 18.19483 -35.63159 1.121904 18.19483 -35.63159 1.121904 0.368411 -35.63159 1.093378 18.17989 -35.61664 1.093378 0.3833576 -35.61664 1.121904 18.19483 -35.63159 1.093378 18.17989 -35.61664 1.063255 0.3947485 -35.60525 1.063255 0.3947485 -0.3947485 1.063255 0.3947485 -0.3947485 1.063255 0.3947485 -35.60525 1.063255 0.3947485 -0.3947485 1.063255 0.3947485 -35.60525 1.121904 18.19483 -0.368411 1.093378 18.17989 -35.61664 1.121904 18.19483 -35.63159 1.093378 18.17989 -0.3833576 1.093378 18.17989 -0.3833576 1.121904 18.19483 -0.368411 1.093378 18.17989 -35.61664 1.121904 18.19483 -35.63159 1.148416 18.21312 -0.3501274 1.148416 0.3501274 -0.3501274 1.148416 0.3501274 -0.3501274 1.148416 18.21312 -0.3501274 1.148416 18.21312 -0.3501274 1.063255 0.3947485 -0.3947485 1.063255 18.1685 -0.3947485 1.063255 0.3947485 -0.3947485 1.063255 18.1685 -0.3947485 1.063255 18.1685 -0.3947485 1.172525 0.3287749 -0.3287749 1.172525 0.3287749 -35.67123 1.172525 0.3287749 -0.3287749 1.172525 0.3287749 -35.67123 1.172525 0.3287749 -0.3287749 1.172525 0.3287749 -35.67123 1.148416 0.3501274 -35.64987 1.148416 18.21312 -35.64987 1.148416 18.21312 -35.64987 1.148416 0.3501274 -35.64987 1.148416 18.21312 -35.64987 1.063255 18.1685 -35.60525 1.063255 0.3947485 -35.60525 1.063255 18.1685 -35.60525 1.063255 0.3947485 -35.60525 1.063255 18.1685 -35.60525 1.031976 0.4024168 -35.59758 1.031976 0.4024168 -0.4024168 1.031976 0.4024168 -0.4024168 1.031976 0.4024168 -35.59758 1.031976 0.4024168 -0.4024168 1.031976 0.4024168 -35.59758 1.148416 18.21312 -0.3501274 1.148416 18.21312 -35.64987 1.148416 18.21312 -0.3501274 1.148416 18.21312 -35.64987 1.063255 18.1685 -35.60525 1.063255 18.1685 -0.3947485 1.063255 18.1685 -0.3947485 1.063255 18.1685 -35.60525 1.172525 18.23447 -0.3287749 1.172525 0.3287749 -0.3287749 1.172525 0.3287749 -0.3287749 1.172525 18.23447 -0.3287749 1.172525 18.23447 -0.3287749 1.031976 0.4024168 -0.4024168 1.031976 18.16083 -0.4024168 1.031976 0.4024168 -0.4024168 1.031976 18.16083 -0.4024168 1.031976 18.16083 -0.4024168 1.193877 0.3046662 -0.3046662 1.193877 0.3046662 -35.69533 1.193877 0.3046662 -0.3046662 1.193877 0.3046662 -35.69533 1.193877 0.3046662 -0.3046662 1.193877 0.3046662 -35.69533 1.172525 0.3287749 -35.67123 1.172525 18.23447 -35.67123 1.172525 18.23447 -35.67123 1.172525 0.3287749 -35.67123 1.172525 18.23447 -35.67123 1.031976 18.16083 -35.59758 1.031976 0.4024168 -35.59758 1.031976 18.16083 -35.59758 1.031976 0.4024168 -35.59758 1.031976 18.16083 -35.59758 1 0.40625 -35.59375 1 0.40625 -0.40625 1 0.40625 -0.40625 1 0.40625 -35.59375 1 0.40625 -0.40625 1 0.40625 -35.59375 1.172525 18.23447 -0.3287749 1.172525 18.23447 -35.67123 1.172525 18.23447 -0.3287749 1.172525 18.23447 -35.67123 1.031976 18.16083 -35.59758 1.031976 18.16083 -0.4024168 1.031976 18.16083 -0.4024168 1.031976 18.16083 -35.59758 1.193877 18.25858 -0.3046662 1.193877 18.25858 -0.3046662 1.193877 18.25858 -0.3046662 1 0.40625 -0.40625 1 18.15699 -0.40625 1 0.40625 -0.40625 1 18.15699 -0.40625 1 18.15699 -0.40625 1.212161 0.2781544 -0.2781544 1.212161 0.2781544 -35.72185 1.212161 0.2781544 -0.2781544 1.212161 0.2781544 -35.72185 1.212161 0.2781544 -0.2781544 1.212161 0.2781544 -35.72185 1.193877 18.25858 -35.69533 1.193877 18.25858 -35.69533 1.193877 18.25858 -35.69533 1 18.15699 -35.59375 1 0.40625 -35.59375 1 18.15699 -35.59375 1 0.40625 -35.59375 1 18.15699 -35.59375 1 0.40625 -35.59375 1 0.5 -35.5 1 0.40625 -0.40625 1 18.15699 -35.59375 1 18.06324 -35.5 1 18.06324 -0.5 1 0.5 -0.5 1 18.15699 -0.40625 1 18.15699 -35.59375 1 18.06324 -0.5 1 18.15699 -0.40625 1 0.5 -0.5 1 0.5 -35.5 1 0.40625 -0.40625 1 18.06324 -35.5 1 0.40625 -35.59375 1 0.5 -35.5 1 18.06324 -35.5 1 0.5 -0.5 1 18.06324 -0.5 1 18.15699 -35.59375 1 18.15699 -0.40625 1 18.15699 -0.40625 1 18.15699 -35.59375 1.212161 18.28509 -0.2781544 1.212161 18.28509 -0.2781544 1.212161 18.28509 -0.2781544 1.227108 0.249628 -0.249628 1.227108 0.249628 -35.75037 1.227108 0.249628 -0.249628 1.227108 0.249628 -35.75037 1.227108 0.249628 -0.249628 1.227108 0.249628 -35.75037 1.212161 18.28509 -35.72185 1.212161 18.28509 -35.72185 1.212161 18.28509 -35.72185 1.227108 18.31362 -0.249628 1.227108 18.31362 -0.249628 1.227108 18.31362 -0.249628 1.238499 0.2195048 -0.2195048 1.238499 0.2195048 -35.7805 1.238499 0.2195048 -0.2195048 1.238499 0.2195048 -35.7805 1.238499 0.2195048 -0.2195048 1.238499 0.2195048 -35.7805 1.227108 18.31362 -35.75037 1.227108 18.31362 -35.75037 1.227108 18.31362 -35.75037 1.238499 18.34374 -0.2195048 1.238499 18.34374 -0.2195048 1.238499 18.34374 -0.2195048 1.246167 0.188226 -0.188226 1.246167 0.188226 -35.81177 1.246167 0.188226 -0.188226 1.246167 0.188226 -35.81177 1.246167 0.188226 -0.188226 1.246167 0.188226 -35.81177 1.238499 18.34374 -35.7805 1.238499 18.34374 -35.7805 1.238499 18.34374 -35.7805 1.246167 18.37502 -0.188226 1.246167 18.37502 -0.188226 1.246167 18.37502 -0.188226 1.25 0.15625 -0.15625 1.25 0.15625 -35.84375 1.25 0.15625 -0.15625 1.25 0.15625 -35.84375 1.25 0.15625 -0.15625 1.25 0.15625 -35.84375 1.246167 18.37502 -35.81177 1.246167 18.37502 -35.81177 1.246167 18.37502 -35.81177 1.25 18.40699 -0.15625 1.25 18.40699 -0.15625 1.25 18.40699 -0.15625 1.25 0.15625 -0.15625 1.375 0.15625 -35.84375 1.25 0.15625 -35.84375 1.375 0.15625 -0.15625 1.375 0.15625 -0.15625 1.25 0.15625 -0.15625 1.375 0.15625 -35.84375 1.25 0.15625 -35.84375 1.375 0.15625 -0.15625 1.375 0.15625 -35.84375 1.25 18.40699 -35.84375 1.25 18.40699 -35.84375 1.25 18.40699 -35.84375 1.375 18.40699 -0.15625 1.25 0.15625 -0.15625 1.25 18.40699 -0.15625 1.375 0.15625 -0.15625 1.375 0.15625 -0.15625 1.375 18.40699 -0.15625 1.25 0.15625 -0.15625 1.25 18.40699 -0.15625 1.375 18.40699 -0.15625 1.375 0.15625 -35.84375 1.25 18.40699 -35.84375 1.25 0.15625 -35.84375 1.375 18.40699 -35.84375 1.375 18.40699 -35.84375 1.375 0.15625 -35.84375 1.25 18.40699 -35.84375 1.25 0.15625 -35.84375 1.375 18.40699 -35.84375 1.375 18.40699 -0.15625 1.25 18.40699 -35.84375 1.375 18.40699 -35.84375 1.25 18.40699 -0.15625 1.25 18.40699 -0.15625 1.375 18.40699 -0.15625 1.25 18.40699 -35.84375 1.375 18.40699 -35.84375</float_array>
                    <technique_common>
                        <accessor count="268" source="#ID41" stride="3">
                            <param name="X" type="float" />
                            <param name="Y" type="float" />
                            <param name="Z" type="float" />
                        </accessor>
                    </technique_common>
                </source>
                <source id="ID38">
                    <float_array id="ID42" count="804">0.4228479 0.9062007 0 0.5320897 0.846688 0 0.5320897 0.846688 0 0.4228479 0.9062007 0 -0.4228479 -0.9062007 -0 -0.4228479 -0.9062007 -0 -0.5320897 -0.846688 -0 -0.5320897 -0.846688 -0 0 0 0 0 0 0 0 0 0 0 0 0 0.5320897 0 -0.846688 0.4228479 0 -0.9062007 0.4228479 0 -0.9062007 0.5320897 0 -0.846688 -0.5320897 -0 0.846688 -0.5320897 -0 0.846688 -0.4228479 -0 0.9062007 -0.4228479 -0 0.9062007 0 0 0 0 0 0 0.6327456 0.7743598 0 0.6327456 0.7743598 0 -0.6327456 -0.7743598 -0 -0.6327456 -0.7743598 -0 0 0 0 0 0 0 0.5320897 0 0.846688 0.4228479 0 0.9062007 0.4228479 0 0.9062007 0.5320897 0 0.846688 -0.5320897 -0 -0.846688 -0.5320897 -0 -0.846688 -0.4228479 -0 -0.9062007 -0.4228479 -0 -0.9062007 0 0 0 0 0 0 0.3066575 0.9518199 0 0.3066575 0.9518199 0 -0.3066575 -0.9518199 -0 -0.3066575 -0.9518199 -0 0 0 0 0 0 0 0.5320897 -0.846688 0 0.4228479 -0.9062007 0 0.5320897 -0.846688 0 0.4228479 -0.9062007 0 -0.4228479 0.9062007 -0 -0.5320897 0.846688 -0 -0.4228479 0.9062007 -0 -0.5320897 0.846688 -0 0.6327456 0 -0.7743598 0.6327456 0 -0.7743598 -0.6327456 -0 0.7743598 -0.6327456 -0 0.7743598 0 0 0 0.3066575 0 -0.9518199 0.3066575 0 -0.9518199 -0.3066575 -0 0.9518199 -0.3066575 -0 0.9518199 0 0 0 0.7233699 0.6904607 0 0.7233699 0.6904607 0 -0.7233699 -0.6904607 -0 -0.7233699 -0.6904607 -0 0 0 0 0 0 0 0.6327456 0 0.7743598 0.6327456 0 0.7743598 -0.6327456 -0 -0.7743598 -0.6327456 -0 -0.7743598 0 0 0 0.3066575 0 0.9518199 0.3066575 0 0.9518199 -0.3066575 -0 -0.9518199 -0.3066575 -0 -0.9518199 0 0 0 0.1853416 0.9826741 0 0.1853416 0.9826741 0 -0.1853416 -0.9826741 -0 -0.1853416 -0.9826741 -0 0 0 0 0 0 0 0.6327456 -0.7743598 0 0.6327456 -0.7743598 0 -0.6327456 0.7743598 -0 -0.6327456 0.7743598 -0 0.3066575 -0.9518199 0 0.3066575 -0.9518199 0 -0.3066575 0.9518199 -0 -0.3066575 0.9518199 -0 0.7233699 0 -0.6904607 0.7233699 0 -0.6904607 -0.7233699 -0 0.6904607 -0.7233699 -0 0.6904607 0 0 0 0.1853416 0 -0.9826741 0.1853416 0 -0.9826741 -0.1853416 -0 0.9826741 -0.1853416 -0 0.9826741 0 0 0 0.8852715 0.3288574 -0.3288574 0.8852715 0.3288574 0.3288574 -0.8852715 -0.3288574 0.3288574 -0.8852715 -0.3288574 -0.3288574 0 0 0 0 0 0 0.7233699 0 0.6904607 0.7233699 0 0.6904607 -0.7233699 -0 -0.6904607 -0.7233699 -0 -0.6904607 0 0 0 0.1853416 0 0.9826741 0.1853416 0 0.9826741 -0.1853416 -0 -0.9826741 -0.1853416 -0 -0.9826741 0 0 0 0.1190265 0.9928911 0 0.1190265 0.9928911 0 -0.1190265 -0.9928911 -0 -0.1190265 -0.9928911 -0 0 0 0 0 0 0 0.7233699 -0.6904607 0 0.7233699 -0.6904607 0 -0.7233699 0.6904607 -0 -0.7233699 0.6904607 -0 0.1853416 -0.9826741 0 0.1853416 -0.9826741 0 -0.1853416 0.9826741 -0 -0.1853416 0.9826741 -0 0.8852715 -0.3288574 -0.3288574 -0.8852715 0.3288574 0.3288574 0 0 0 0.1190265 0 -0.9928911 0.1190265 0 -0.9928911 -0.1190265 -0 0.9928911 -0.1190265 -0 0.9928911 0 0 0 0.9280534 0.26336 -0.26336 0.9280534 0.26336 0.26336 -0.9280534 -0.26336 0.26336 -0.9280534 -0.26336 -0.26336 0 0 0 0 0 0 0.8852715 -0.3288574 0.3288574 -0.8852715 0.3288574 -0.3288574 0 0 0 0.1190265 0 0.9928911 0.1190265 0 0.9928911 -0.1190265 -0 -0.9928911 -0.1190265 -0 -0.9928911 0 0 0 1 -0 -0 1 -0 -0 1 -0 -0 1 -0 -0 1 -0 -0 1 -0 -0 1 -0 -0 1 -0 -0 -1 0 0 -1 0 0 -1 0 0 -1 0 0 -1 0 0 -1 0 0 -1 0 0 -1 0 0 0 0 0 0 0 0 0 0 0 0 0 0 0.1190265 -0.9928911 0 0.1190265 -0.9928911 0 -0.1190265 0.9928911 -0 -0.1190265 0.9928911 -0 0.9280534 -0.26336 -0.26336 -0.9280534 0.26336 0.26336 0 0 0 0.9594408 0.1993406 -0.1993406 0.9594408 0.1993406 0.1993406 -0.9594408 -0.1993406 0.1993406 -0.9594408 -0.1993406 -0.1993406 0 0 0 0 0 0 0.9280534 -0.26336 0.26336 -0.9280534 0.26336 -0.26336 0 0 0 0.9594408 -0.1993406 -0.1993406 -0.9594408 0.1993406 0.1993406 0 0 0 0.9811348 0.1367012 -0.1367012 0.9811348 0.1367012 0.1367012 -0.9811348 -0.1367012 0.1367012 -0.9811348 -0.1367012 -0.1367012 0 0 0 0 0 0 0.9594408 -0.1993406 0.1993406 -0.9594408 0.1993406 -0.1993406 0 0 0 0.9811348 -0.1367012 -0.1367012 -0.9811348 0.1367012 0.1367012 0 0 0 0.994337 0.07514632 -0.07514632 0.994337 0.07514632 0.07514632 -0.994337 -0.07514632 0.07514632 -0.994337 -0.07514632 -0.07514632 0 0 0 0 0 0 0.9811348 -0.1367012 0.1367012 -0.9811348 0.1367012 -0.1367012 0 0 0 0.994337 -0.07514632 -0.07514632 -0.994337 0.07514632 0.07514632 0 0 0 0.9964265 0.05972516 -0.05972516 0.9964265 0.05972516 0.05972516 -0.9964265 -0.05972516 0.05972516 -0.9964265 -0.05972516 -0.05972516 0 0 0 0 0 0 0.994337 -0.07514632 0.07514632 -0.994337 0.07514632 -0.07514632 0 0 0 0.9964265 -0.05972516 -0.05972516 -0.9964265 0.05972516 0.05972516 0 0 0 0 1 0 0 1 0 0 1 0 0 1 0 -0 -1 -0 -0 -1 -0 -0 -1 -0 -0 -1 -0 0 0 0 0 0 0 0.9964265 -0.05972516 0.05972516 -0.9964265 0.05972516 -0.05972516 0 0 0 0 0 -1 0 0 -1 0 0 -1 0 0 -1 -0 -0 1 -0 -0 1 -0 -0 1 -0 -0 1 0 0 0 0 0 1 0 0 1 0 0 1 0 0 1 -0 -0 -1 -0 -0 -1 -0 -0 -1 -0 -0 -1 0 0 0 0 -1 0 0 -1 0 0 -1 0 0 -1 0 -0 1 -0 -0 1 -0 -0 1 -0 -0 1 -0</float_array>
                    <technique_common>
                        <accessor count="268" source="#ID42" stride="3">
                            <param name="X" type="float" />
                            <param name="Y" type="float" />
                            <param name="Z" type="float" />
                        </accessor>
                    </technique_common>
                </source>
                <source id="ID39">
                    <Name_array id="ID43" count="0" />
                    <technique_common>
                        <accessor count="0" source="#ID43" stride="1">
                            <param name="skp_material" type="Name" />
                        </accessor>
                    </technique_common>
                </source>
                <vertices id="ID40">
                    <input semantic="POSITION" source="#ID37" />
                    <input semantic="NORMAL" source="#ID38" />
                </vertices>
                <triangles count="224" material="Material2">
                    <input offset="0" semantic="VERTEX" source="#ID40" />
                    <p>0 1 2 1 0 3 4 5 6 7 6 5 12 13 14 13 12 15 16 17 18 19 18 17 2 22 23 22 2 1 6 7 24 25 24 7 28 29 30 29 28 31 32 33 34 35 34 33 38 3 0 3 38 39 40 41 4 5 4 41 44 45 46 45 44 47 48 49 50 51 50 49 52 15 12 15 52 53 54 55 16 17 16 55 14 57 58 57 14 13 18 19 59 60 59 19 23 62 63 62 23 22 24 25 64 65 64 25 68 31 28 31 68 69 70 71 32 33 32 71 30 73 74 73 30 29 34 35 75 76 75 35 78 39 38 39 78 79 80 81 40 41 40 81 84 46 85 46 84 44 49 86 51 87 51 86 47 88 45 88 47 89 90 48 91 50 91 48 92 53 52 53 92 93 94 95 54 55 54 95 58 97 98 97 58 57 59 60 99 100 99 60 63 102 103 102 63 62 64 65 104 105 104 65 108 69 68 69 108 109 110 111 70 71 70 111 74 113 114 113 74 73 75 76 115 116 115 76 118 79 78 79 118 119 120 121 80 81 80 121 124 85 125 85 124 84 86 126 87 127 87 126 89 128 88 128 89 129 130 90 131 91 131 90 93 132 102 132 93 92 95 94 133 104 133 94 98 135 136 135 98 97 99 100 137 138 137 100 103 140 141 140 103 102 104 105 142 143 142 105 146 108 103 108 146 109 110 147 111 105 111 147 114 149 150 149 114 113 115 116 151 152 151 116 154 155 156 155 154 157 155 157 158 158 157 159 156 160 161 160 156 155 161 160 159 161 159 157 162 163 164 163 165 164 166 167 165 164 165 167 163 162 168 168 162 166 162 169 166 167 166 169 146 124 125 124 146 132 133 147 126 127 126 147 129 174 128 174 129 175 176 130 177 131 177 130 102 178 140 178 102 132 133 104 179 142 179 104 141 181 182 181 141 140 142 143 183 184 183 143 187 103 141 103 187 146 147 188 105 143 105 188 187 132 146 132 187 178 179 188 133 147 133 188 140 190 181 190 140 178 179 142 191 183 191 142 182 193 194 193 182 181 183 184 195 196 195 184 199 141 182 141 199 187 188 200 143 184 143 200 199 178 187 178 199 190 191 200 179 188 179 200 181 202 193 202 181 190 191 183 203 195 203 183 194 205 206 205 194 193 195 196 207 208 207 196 211 182 194 182 211 199 200 212 184 196 184 212 211 190 199 190 211 202 203 212 191 200 191 212 193 214 205 214 193 202 203 195 215 207 215 195 206 217 218 217 206 205 207 208 219 220 219 208 223 194 206 194 223 211 212 224 196 208 196 224 223 202 211 202 223 214 215 224 203 212 203 224 205 226 217 226 205 214 215 207 227 219 227 207 229 230 231 230 229 232 233 234 235 236 235 234 239 206 218 206 239 223 224 240 208 220 208 240 239 214 223 214 239 226 227 240 215 224 215 240 242 243 244 243 242 245 246 247 248 249 248 247 251 252 253 252 251 254 255 256 257 258 257 256 260 261 262 261 260 263 264 265 266 267 266 265</p>
                </triangles>
                <lines count="112" material="Material3">
                    <input offset="0" semantic="VERTEX" source="#ID40" />
                    <p>8 9 9 10 10 11 11 8 20 21 20 9 8 21 9 26 26 27 27 10 10 36 36 37 37 11 42 8 11 43 42 43 36 20 21 37 56 20 56 26 21 61 61 42 26 66 66 67 67 27 27 72 72 36 37 77 43 77 82 42 43 83 82 83 72 56 77 61 96 56 96 66 61 101 101 82 66 106 106 107 107 67 67 112 112 72 77 117 83 117 122 82 83 123 122 123 112 96 117 101 134 96 134 106 101 139 139 122 106 144 144 145 145 107 107 148 148 112 117 153 123 153 153 139 170 171 172 170 173 172 171 173 148 134 180 134 180 144 144 185 185 186 186 145 145 189 189 148 189 180 192 180 192 185 185 197 197 198 198 186 186 201 201 189 201 192 204 192 204 197 197 209 209 210 210 198 198 213 213 201 213 204 216 204 216 209 209 221 221 222 222 210 210 225 225 213 225 216 228 216 228 221 221 237 237 238 238 222 222 241 241 225 241 228 250 228 250 237 238 259 259 241 259 250</p>
                </lines>
            </mesh>
        </geometry>
        <geometry id="ID44">
            <mesh>
                <source id="ID45">
                    <float_array id="ID49" count="240">1.375 0 0 0 0 -36 1.375 0 -36 0 0 0 0 0 0 1.375 0 0 0 0 -36 1.375 0 -36 1.375 0 0 0 0 0 0 0 -36 1.375 0 -36 1.375 0 0 0 18.56324 0 0 0 0 1.375 18.56324 0 1.375 18.56324 0 1.375 0 0 0 18.56324 0 0 0 0 0 18.56324 0 1.375 18.56324 0 0 0 0 0 0.15625 -0.15625 0 0 -36 0 18.56324 0 0 18.40699 -0.15625 0 18.40699 -35.84375 0 0.15625 -35.84375 0 18.56324 -36 0 18.56324 0 0 18.40699 -35.84375 0 18.56324 -36 0 0.15625 -35.84375 0 0.15625 -0.15625 0 0 -36 0 18.40699 -0.15625 0 0 0 0 18.56324 -36 0 0.15625 -0.15625 0 0.15625 -35.84375 0 18.40699 -35.84375 0 18.40699 -0.15625 1.375 18.56324 -36 0 0 -36 0 18.56324 -36 1.375 0 -36 1.375 0 -36 1.375 18.56324 -36 0 0 -36 0 18.56324 -36 1.375 18.56324 -36 1.375 0 -36 1.375 0.15625 -35.84375 1.375 0 0 1.375 18.56324 -36 1.375 18.40699 -35.84375 1.375 18.40699 -0.15625 1.375 0.15625 -0.15625 1.375 18.56324 0 1.375 18.56324 -36 1.375 18.40699 -0.15625 1.375 18.56324 0 1.375 0.15625 -0.15625 1.375 0.15625 -35.84375 1.375 0 0 1.375 18.40699 -35.84375 1.375 0 -36 1.375 0.15625 -35.84375 1.375 18.40699 -35.84375 1.375 0.15625 -0.15625 1.375 18.40699 -0.15625 0 18.56324 0 1.375 18.56324 -36 0 18.56324 -36 1.375 18.56324 0 1.375 18.56324 0 0 18.56324 0 1.375 18.56324 -36 0 18.56324 -36</float_array>
                    <technique_common>
                        <accessor count="80" source="#ID49" stride="3">
                            <param name="X" type="float" />
                            <param name="Y" type="float" />
                            <param name="Z" type="float" />
                        </accessor>
                    </technique_common>
                </source>
                <source id="ID46">
                    <float_array id="ID50" count="240">0 -1 0 0 -1 0 0 -1 0 0 -1 0 -0 1 -0 -0 1 -0 -0 1 -0 -0 1 -0 0 0 0 0 0 0 0 0 0 0 0 0 -0 -0 1 -0 -0 1 -0 -0 1 -0 -0 1 0 0 -1 0 0 -1 0 0 -1 0 0 -1 0 0 0 0 0 0 -1 0 0 -1 0 0 -1 0 0 -1 0 0 -1 0 0 -1 0 0 -1 0 0 -1 0 0 1 -0 -0 1 -0 -0 1 -0 -0 1 -0 -0 1 -0 -0 1 -0 -0 1 -0 -0 1 -0 -0 0 0 0 0 0 0 0 0 0 0 0 0 0 0 0 0 0 -1 0 0 -1 0 0 -1 0 0 -1 -0 -0 1 -0 -0 1 -0 -0 1 -0 -0 1 0 0 0 1 -0 -0 1 -0 -0 1 -0 -0 1 -0 -0 1 -0 -0 1 -0 -0 1 -0 -0 1 -0 -0 -1 0 0 -1 0 0 -1 0 0 -1 0 0 -1 0 0 -1 0 0 -1 0 0 -1 0 0 0 0 0 0 0 0 0 0 0 0 0 0 -0 1 -0 -0 1 -0 -0 1 -0 -0 1 -0 0 -1 0 0 -1 0 0 -1 0 0 -1 0</float_array>
                    <technique_common>
                        <accessor count="80" source="#ID50" stride="3">
                            <param name="X" type="float" />
                            <param name="Y" type="float" />
                            <param name="Z" type="float" />
                        </accessor>
                    </technique_common>
                </source>
                <source id="ID47">
                    <Name_array id="ID51" count="0" />
                    <technique_common>
                        <accessor count="0" source="#ID51" stride="1">
                            <param name="skp_material" type="Name" />
                        </accessor>
                    </technique_common>
                </source>
                <vertices id="ID48">
                    <input semantic="POSITION" source="#ID45" />
                    <input semantic="NORMAL" source="#ID46" />
                </vertices>
                <triangles count="48" material="Material2">
                    <input offset="0" semantic="VERTEX" source="#ID48" />
                    <p>0 1 2 1 0 3 4 5 6 7 6 5 12 13 14 13 12 15 16 17 18 19 18 17 22 23 24 23 22 25 23 25 26 26 25 27 24 28 29 28 24 23 29 28 27 29 27 25 30 31 32 31 33 32 34 35 33 32 33 35 31 30 36 36 30 34 30 37 34 35 34 37 43 44 45 44 43 46 47 48 49 50 49 48 52 53 54 53 52 55 53 55 56 56 55 57 54 58 59 58 54 53 59 58 57 59 57 55 60 61 62 61 63 62 64 65 63 62 63 65 61 60 66 66 60 64 60 67 64 65 64 67 72 73 74 73 72 75 76 77 78 79 78 77</p>
                </triangles>
                <lines count="20" material="Material3">
                    <input offset="0" semantic="VERTEX" source="#ID48" />
                    <p>8 9 9 10 10 11 8 11 20 21 20 9 21 8 10 38 38 20 39 40 40 41 41 42 42 39 38 51 11 51 51 21 68 69 70 68 71 70 69 71</p>
                </lines>
            </mesh>
        </geometry>
        <geometry id="ID52">
            <mesh>
                <source id="ID53">
                    <float_array id="ID57" count="804">0 0.15625 -0.15625 0.125 0.15625 -35.84375 0 0.15625 -35.84375 0.125 0.15625 -0.15625 0.125 0.15625 -0.15625 0 0.15625 -0.15625 0.125 0.15625 -35.84375 0 0.15625 -35.84375 0 0.15625 -0.15625 0.125 0.15625 -0.15625 0.125 0.15625 -35.84375 0 0.15625 -35.84375 0.125 18.40699 -0.15625 0 0.15625 -0.15625 0 18.40699 -0.15625 0.125 0.15625 -0.15625 0.125 0.15625 -0.15625 0.125 18.40699 -0.15625 0 0.15625 -0.15625 0 18.40699 -0.15625 0.125 18.40699 -0.15625 0 18.40699 -0.15625 0.1288332 0.188226 -0.188226 0.125 0.15625 -35.84375 0.125 0.15625 -0.15625 0.1288332 0.188226 -35.81177 0.1288332 0.188226 -35.81177 0.1288332 0.188226 -0.188226 0.125 0.15625 -35.84375 0.125 0.15625 -0.15625 0.1288332 0.188226 -0.188226 0.1288332 0.188226 -35.81177 0.125 0.15625 -35.84375 0 18.40699 -35.84375 0 0.15625 -35.84375 0.125 18.40699 -35.84375 0.125 18.40699 -35.84375 0.125 0.15625 -35.84375 0 18.40699 -35.84375 0 0.15625 -35.84375 0.125 18.40699 -35.84375 0 18.40699 -35.84375 0.125 18.40699 -0.15625 0 18.40699 -35.84375 0.125 18.40699 -35.84375 0 18.40699 -0.15625 0 18.40699 -0.15625 0.125 18.40699 -0.15625 0 18.40699 -35.84375 0.125 18.40699 -35.84375 0.125 18.40699 -0.15625 0.1288332 18.37502 -0.188226 0.1288332 18.37502 -0.188226 0.125 18.40699 -0.15625 0.1288332 18.37502 -0.188226 0.1365015 0.2195048 -0.2195048 0.1365015 0.2195048 -35.7805 0.1365015 0.2195048 -35.7805 0.1365015 0.2195048 -0.2195048 0.1365015 0.2195048 -0.2195048 0.1365015 0.2195048 -35.7805 0.125 18.40699 -35.84375 0.1288332 18.37502 -35.81177 0.1288332 18.37502 -35.81177 0.125 18.40699 -35.84375 0.1288332 18.37502 -35.81177 0.1365015 18.34374 -0.2195048 0.1365015 18.34374 -0.2195048 0.1365015 18.34374 -0.2195048 0.1478924 0.249628 -0.249628 0.1478924 0.249628 -35.75037 0.1478924 0.249628 -35.75037 0.1478924 0.249628 -0.249628 0.1478924 0.249628 -0.249628 0.1478924 0.249628 -35.75037 0.1365015 18.34374 -35.7805 0.1365015 18.34374 -35.7805 0.1365015 18.34374 -35.7805 0.1478924 18.31362 -0.249628 0.1478924 18.31362 -0.249628 0.1478924 18.31362 -0.249628 0.162839 0.2781544 -0.2781544 0.162839 0.2781544 -35.72185 0.162839 0.2781544 -35.72185 0.162839 0.2781544 -0.2781544 0.162839 0.2781544 -0.2781544 0.162839 0.2781544 -35.72185 0.1478924 18.31362 -35.75037 0.1478924 18.31362 -35.75037 0.1478924 18.31362 -35.75037 0.162839 18.28509 -0.2781544 0.162839 18.28509 -0.2781544 0.162839 18.28509 -0.2781544 0.1811226 0.3046662 -0.3046662 0.1811226 0.3046662 -35.69533 0.1811226 0.3046662 -35.69533 0.1811226 0.3046662 -0.3046662 0.1811226 0.3046662 -0.3046662 0.1811226 0.3046662 -35.69533 0.162839 18.28509 -35.72185 0.162839 18.28509 -35.72185 0.162839 18.28509 -35.72185 0.1811226 18.25858 -0.3046662 0.1811226 18.25858 -0.3046662 0.1811226 18.25858 -0.3046662 0.2024751 0.3287749 -0.3287749 0.2024751 0.3287749 -35.67123 0.2024751 0.3287749 -35.67123 0.2024751 0.3287749 -0.3287749 0.2024751 0.3287749 -0.3287749 0.2024751 0.3287749 -35.67123 0.1811226 18.25858 -35.69533 0.1811226 18.25858 -35.69533 0.1811226 18.25858 -35.69533 0.2024751 0.3287749 -0.3287749 0.2024751 18.23447 -0.3287749 0.2024751 18.23447 -0.3287749 0.2024751 0.3287749 -0.3287749 0.2024751 18.23447 -0.3287749 0.2265838 0.3501274 -35.64987 0.2265838 0.3501274 -0.3501274 0.2265838 0.3501274 -0.3501274 0.2265838 0.3501274 -35.64987 0.2265838 0.3501274 -0.3501274 0.2265838 0.3501274 -35.64987 0.2024751 0.3287749 -35.67123 0.2024751 18.23447 -35.67123 0.2024751 18.23447 -35.67123 0.2024751 0.3287749 -35.67123 0.2024751 18.23447 -35.67123 0.2024751 18.23447 -35.67123 0.2024751 18.23447 -0.3287749 0.2024751 18.23447 -35.67123 0.2024751 18.23447 -0.3287749 0.2265838 18.21312 -0.3501274 0.2265838 0.3501274 -0.3501274 0.2265838 0.3501274 -0.3501274 0.2265838 18.21312 -0.3501274 0.2265838 18.21312 -0.3501274 0.2530956 0.368411 -35.63159 0.2530956 0.368411 -0.368411 0.2530956 0.368411 -0.368411 0.2530956 0.368411 -35.63159 0.2530956 0.368411 -0.368411 0.2530956 0.368411 -35.63159 0.2265838 0.3501274 -35.64987 0.2265838 18.21312 -35.64987 0.2265838 18.21312 -35.64987 0.2265838 0.3501274 -35.64987 0.2265838 18.21312 -35.64987 0.2265838 18.21312 -35.64987 0.2265838 18.21312 -0.3501274 0.2265838 18.21312 -0.3501274 0.2265838 18.21312 -35.64987 0.2530956 18.19483 -0.368411 0.2530956 0.368411 -0.368411 0.2530956 0.368411 -0.368411 0.2530956 18.19483 -0.368411 0.2530956 18.19483 -0.368411 0.281622 0.3833576 -35.61664 0.281622 0.3833576 -0.3833576 0.281622 0.3833576 -0.3833576 0.281622 0.3833576 -35.61664 0.281622 0.3833576 -0.3833576 0.281622 0.3833576 -35.61664 0.2530956 0.368411 -35.63159 0.2530956 18.19483 -35.63159 0.2530956 18.19483 -35.63159 0.2530956 0.368411 -35.63159 0.2530956 18.19483 -35.63159 0.2530956 18.19483 -35.63159 0.2530956 18.19483 -0.368411 0.2530956 18.19483 -0.368411 0.2530956 18.19483 -35.63159 0.281622 18.17989 -0.3833576 0.281622 0.3833576 -0.3833576 0.281622 0.3833576 -0.3833576 0.281622 18.17989 -0.3833576 0.281622 18.17989 -0.3833576 0.3117452 0.3947485 -35.60525 0.3117452 0.3947485 -0.3947485 0.3117452 0.3947485 -0.3947485 0.3117452 0.3947485 -35.60525 0.3117452 0.3947485 -0.3947485 0.3117452 0.3947485 -35.60525 0.281622 0.3833576 -35.61664 0.281622 18.17989 -35.61664 0.281622 18.17989 -35.61664 0.281622 0.3833576 -35.61664 0.281622 18.17989 -35.61664 0.281622 18.17989 -35.61664 0.281622 18.17989 -0.3833576 0.281622 18.17989 -0.3833576 0.281622 18.17989 -35.61664 0.3117452 18.1685 -0.3947485 0.3117452 0.3947485 -0.3947485 0.3117452 0.3947485 -0.3947485 0.3117452 18.1685 -0.3947485 0.3117452 18.1685 -0.3947485 0.343024 0.4024168 -35.59758 0.343024 0.4024168 -0.4024168 0.343024 0.4024168 -0.4024168 0.343024 0.4024168 -35.59758 0.343024 0.4024168 -0.4024168 0.343024 0.4024168 -35.59758 0.3117452 0.3947485 -35.60525 0.3117452 18.1685 -35.60525 0.3117452 18.1685 -35.60525 0.3117452 0.3947485 -35.60525 0.3117452 18.1685 -35.60525 0.3117452 18.1685 -35.60525 0.3117452 18.1685 -0.3947485 0.3117452 18.1685 -0.3947485 0.3117452 18.1685 -35.60525 0.343024 18.16083 -0.4024168 0.343024 0.4024168 -0.4024168 0.343024 0.4024168 -0.4024168 0.343024 18.16083 -0.4024168 0.343024 18.16083 -0.4024168 0.375 0.40625 -35.59375 0.375 0.40625 -0.40625 0.375 0.40625 -0.40625 0.375 0.40625 -35.59375 0.375 0.40625 -0.40625 0.375 0.40625 -35.59375 0.343024 0.4024168 -35.59758 0.343024 18.16083 -35.59758 0.343024 18.16083 -35.59758 0.343024 0.4024168 -35.59758 0.343024 18.16083 -35.59758 0.343024 18.16083 -35.59758 0.343024 18.16083 -0.4024168 0.343024 18.16083 -0.4024168 0.343024 18.16083 -35.59758 0.375 18.15699 -0.40625 0.375 0.40625 -0.40625 0.375 0.40625 -0.40625 0.375 18.15699 -0.40625 0.375 18.15699 -0.40625 0.375 0.40625 -0.40625 0.375 0.5 -0.5 0.375 0.40625 -35.59375 0.375 18.15699 -0.40625 0.375 18.06324 -0.5 0.375 18.06324 -35.5 0.375 0.5 -35.5 0.375 18.15699 -35.59375 0.375 18.15699 -0.40625 0.375 18.06324 -35.5 0.375 18.15699 -35.59375 0.375 0.5 -35.5 0.375 0.5 -0.5 0.375 0.40625 -35.59375 0.375 18.06324 -0.5 0.375 0.40625 -0.40625 0.375 18.15699 -35.59375 0.375 0.5 -0.5 0.375 0.5 -35.5 0.375 18.06324 -35.5 0.375 18.06324 -0.5 0.375 0.40625 -35.59375 0.375 18.15699 -35.59375 0.375 18.15699 -35.59375 0.375 0.40625 -35.59375 0.375 18.15699 -35.59375 0.375 18.15699 -0.40625 0.375 18.15699 -0.40625 0.375 18.15699 -35.59375</float_array>
                    <technique_common>
                        <accessor count="268" source="#ID57" stride="3">
                            <param name="X" type="float" />
                            <param name="Y" type="float" />
                            <param name="Z" type="float" />
                        </accessor>
                    </technique_common>
                </source>
                <source id="ID54">
                    <float_array id="ID58" count="804">0 1 0 0 1 0 0 1 0 0 1 0 -0 -1 -0 -0 -1 -0 -0 -1 -0 -0 -1 -0 0 0 0 0 0 0 0 0 0 0 0 0 0 0 -1 0 0 -1 0 0 -1 0 0 -1 -0 -0 1 -0 -0 1 -0 -0 1 -0 -0 1 0 0 0 0 0 0 -0.994337 0.07514632 -0.07514632 -0.9964265 0.05972516 0.05972516 -0.9964265 0.05972516 -0.05972516 -0.994337 0.07514632 0.07514632 0.994337 -0.07514632 -0.07514632 0.994337 -0.07514632 0.07514632 0.9964265 -0.05972516 -0.05972516 0.9964265 -0.05972516 0.05972516 0 0 0 0 0 0 0 0 1 0 0 1 0 0 1 0 0 1 -0 -0 -1 -0 -0 -1 -0 -0 -1 -0 -0 -1 0 0 0 0 0 0 0 -1 0 0 -1 0 0 -1 0 0 -1 0 -0 1 -0 -0 1 -0 -0 1 -0 -0 1 -0 -0.9964265 -0.05972516 -0.05972516 -0.994337 -0.07514632 -0.07514632 0.994337 0.07514632 0.07514632 0.9964265 0.05972516 0.05972516 0 0 0 -0.9811348 0.1367012 -0.1367012 -0.9811348 0.1367012 0.1367012 0.9811348 -0.1367012 -0.1367012 0.9811348 -0.1367012 0.1367012 0 0 0 0 0 0 -0.9964265 -0.05972516 0.05972516 -0.994337 -0.07514632 0.07514632 0.994337 0.07514632 -0.07514632 0.9964265 0.05972516 -0.05972516 0 0 0 -0.9811348 -0.1367012 -0.1367012 0.9811348 0.1367012 0.1367012 0 0 0 -0.9594408 0.1993406 -0.1993406 -0.9594408 0.1993406 0.1993406 0.9594408 -0.1993406 -0.1993406 0.9594408 -0.1993406 0.1993406 0 0 0 0 0 0 -0.9811348 -0.1367012 0.1367012 0.9811348 0.1367012 -0.1367012 0 0 0 -0.9594408 -0.1993406 -0.1993406 0.9594408 0.1993406 0.1993406 0 0 0 -0.9280534 0.26336 -0.26336 -0.9280534 0.26336 0.26336 0.9280534 -0.26336 -0.26336 0.9280534 -0.26336 0.26336 0 0 0 0 0 0 -0.9594408 -0.1993406 0.1993406 0.9594408 0.1993406 -0.1993406 0 0 0 -0.9280534 -0.26336 -0.26336 0.9280534 0.26336 0.26336 0 0 0 -0.8852715 0.3288574 -0.3288574 -0.8852715 0.3288574 0.3288574 0.8852715 -0.3288574 -0.3288574 0.8852715 -0.3288574 0.3288574 0 0 0 0 0 0 -0.9280534 -0.26336 0.26336 0.9280534 0.26336 -0.26336 0 0 0 -0.8852715 -0.3288574 -0.3288574 0.8852715 0.3288574 0.3288574 0 0 0 -0.7233699 0.6904607 0 -0.7233699 0.6904607 0 0.7233699 -0.6904607 -0 0.7233699 -0.6904607 -0 0 0 0 0 0 0 -0.8852715 -0.3288574 0.3288574 0.8852715 0.3288574 -0.3288574 0 0 0 -0.7233699 0 -0.6904607 -0.7233699 0 -0.6904607 0.7233699 -0 0.6904607 0.7233699 -0 0.6904607 0 0 0 -0.6327456 0.7743598 0 -0.6327456 0.7743598 0 0.6327456 -0.7743598 -0 0.6327456 -0.7743598 -0 0 0 0 0 0 0 -0.7233699 0 0.6904607 -0.7233699 0 0.6904607 0.7233699 -0 -0.6904607 0.7233699 -0 -0.6904607 0 0 0 -0.7233699 -0.6904607 0 -0.7233699 -0.6904607 0 0.7233699 0.6904607 -0 0.7233699 0.6904607 -0 -0.6327456 0 -0.7743598 -0.6327456 0 -0.7743598 0.6327456 -0 0.7743598 0.6327456 -0 0.7743598 0 0 0 -0.5320897 0.846688 0 -0.5320897 0.846688 0 0.5320897 -0.846688 -0 0.5320897 -0.846688 -0 0 0 0 0 0 0 -0.6327456 0 0.7743598 -0.6327456 0 0.7743598 0.6327456 -0 -0.7743598 0.6327456 -0 -0.7743598 0 0 0 -0.6327456 -0.7743598 0 -0.6327456 -0.7743598 0 0.6327456 0.7743598 -0 0.6327456 0.7743598 -0 -0.5320897 0 -0.846688 -0.5320897 0 -0.846688 0.5320897 -0 0.846688 0.5320897 -0 0.846688 0 0 0 -0.4228479 0.9062007 0 -0.4228479 0.9062007 0 0.4228479 -0.9062007 -0 0.4228479 -0.9062007 -0 0 0 0 0 0 0 -0.5320897 0 0.846688 -0.5320897 0 0.846688 0.5320897 -0 -0.846688 0.5320897 -0 -0.846688 0 0 0 -0.5320897 -0.846688 0 -0.5320897 -0.846688 0 0.5320897 0.846688 -0 0.5320897 0.846688 -0 -0.4228479 0 -0.9062007 -0.4228479 0 -0.9062007 0.4228479 -0 0.9062007 0.4228479 -0 0.9062007 0 0 0 -0.3066575 0.9518199 0 -0.3066575 0.9518199 0 0.3066575 -0.9518199 -0 0.3066575 -0.9518199 -0 0 0 0 0 0 0 -0.4228479 0 0.9062007 -0.4228479 0 0.9062007 0.4228479 -0 -0.9062007 0.4228479 -0 -0.9062007 0 0 0 -0.4228479 -0.9062007 0 -0.4228479 -0.9062007 0 0.4228479 0.9062007 -0 0.4228479 0.9062007 -0 -0.3066575 0 -0.9518199 -0.3066575 0 -0.9518199 0.3066575 -0 0.9518199 0.3066575 -0 0.9518199 0 0 0 -0.1853416 0.9826741 0 -0.1853416 0.9826741 0 0.1853416 -0.9826741 -0 0.1853416 -0.9826741 -0 0 0 0 0 0 0 -0.3066575 0 0.9518199 -0.3066575 0 0.9518199 0.3066575 -0 -0.9518199 0.3066575 -0 -0.9518199 0 0 0 -0.3066575 -0.9518199 0 -0.3066575 -0.9518199 0 0.3066575 0.9518199 -0 0.3066575 0.9518199 -0 -0.1853416 0 -0.9826741 -0.1853416 0 -0.9826741 0.1853416 -0 0.9826741 0.1853416 -0 0.9826741 0 0 0 -0.1190265 0.9928911 0 -0.1190265 0.9928911 0 0.1190265 -0.9928911 -0 0.1190265 -0.9928911 -0 0 0 0 0 0 0 -0.1853416 0 0.9826741 -0.1853416 0 0.9826741 0.1853416 -0 -0.9826741 0.1853416 -0 -0.9826741 0 0 0 -0.1853416 -0.9826741 0 -0.1853416 -0.9826741 0 0.1853416 0.9826741 -0 0.1853416 0.9826741 -0 -0.1190265 0 -0.9928911 -0.1190265 0 -0.9928911 0.1190265 -0 0.9928911 0.1190265 -0 0.9928911 0 0 0 -1 0 0 -1 0 0 -1 0 0 -1 0 0 -1 0 0 -1 0 0 -1 0 0 -1 0 0 1 -0 -0 1 -0 -0 1 -0 -0 1 -0 -0 1 -0 -0 1 -0 -0 1 -0 -0 1 -0 -0 0 0 0 0 0 0 0 0 0 0 0 0 0 0 0 -0.1190265 0 0.9928911 -0.1190265 0 0.9928911 0.1190265 -0 -0.9928911 0.1190265 -0 -0.9928911 -0.1190265 -0.9928911 0 -0.1190265 -0.9928911 0 0.1190265 0.9928911 -0 0.1190265 0.9928911 -0</float_array>
                    <technique_common>
                        <accessor count="268" source="#ID58" stride="3">
                            <param name="X" type="float" />
                            <param name="Y" type="float" />
                            <param name="Z" type="float" />
                        </accessor>
                    </technique_common>
                </source>
                <source id="ID55">
                    <Name_array id="ID59" count="0" />
                    <technique_common>
                        <accessor count="0" source="#ID59" stride="1">
                            <param name="skp_material" type="Name" />
                        </accessor>
                    </technique_common>
                </source>
                <vertices id="ID56">
                    <input semantic="POSITION" source="#ID53" />
                    <input semantic="NORMAL" source="#ID54" />
                </vertices>
                <triangles count="224" material="Material2">
                    <input offset="0" semantic="VERTEX" source="#ID56" />
                    <p>0 1 2 1 0 3 4 5 6 7 6 5 12 13 14 13 12 15 16 17 18 19 18 17 22 23 24 23 22 25 26 27 28 29 28 27 32 33 34 33 32 35 36 37 38 39 38 37 42 43 44 43 42 45 46 47 48 49 48 47 50 22 24 22 50 51 52 53 27 29 27 53 55 25 22 25 55 56 57 58 26 27 26 58 25 61 23 61 25 62 63 26 64 28 64 26 50 62 51 62 50 61 64 53 63 52 63 53 51 55 22 55 51 66 67 52 58 27 58 52 69 56 55 56 69 70 71 72 57 58 57 72 56 62 25 62 56 75 76 57 63 26 63 57 51 75 66 75 51 62 63 52 76 67 76 52 66 69 55 69 66 78 79 67 72 58 72 67 81 70 69 70 81 82 83 84 71 72 71 84 70 75 56 75 70 87 88 71 76 57 76 71 66 87 78 87 66 75 76 67 88 79 88 67 78 81 69 81 78 90 91 79 84 72 84 79 93 82 81 82 93 94 95 96 83 84 83 96 82 87 70 87 82 99 100 83 88 71 88 83 78 99 90 99 78 87 88 79 100 91 100 79 90 93 81 93 90 102 103 91 96 84 96 91 105 94 93 94 105 106 107 108 95 96 95 108 94 99 82 99 94 111 112 95 100 83 100 95 90 111 102 111 90 99 100 91 112 103 112 91 102 114 93 114 102 115 116 103 117 96 117 103 105 119 106 119 105 120 121 108 122 107 122 108 125 111 94 111 125 126 127 128 112 95 112 128 102 130 131 130 102 111 112 103 132 133 132 103 134 114 115 114 134 135 136 137 117 116 117 137 120 139 119 139 120 140 141 121 142 122 142 121 145 126 125 126 145 146 147 148 127 128 127 148 150 131 130 131 150 151 152 153 133 132 133 153 154 135 134 135 154 155 156 157 136 137 136 157 140 159 139 159 140 160 161 141 162 142 162 141 165 146 145 146 165 166 167 168 147 148 147 168 170 151 150 151 170 171 172 173 152 153 152 173 174 155 154 155 174 175 176 177 156 157 156 177 160 179 159 179 160 180 181 161 182 162 182 161 185 166 165 166 185 186 187 188 167 168 167 188 190 171 170 171 190 191 192 193 172 173 172 193 194 175 174 175 194 195 196 197 176 177 176 197 180 199 179 199 180 200 201 181 202 182 202 181 205 186 185 186 205 206 207 208 187 188 187 208 210 191 190 191 210 211 212 213 192 193 192 213 214 195 194 195 214 215 216 217 196 197 196 217 200 219 199 219 200 220 221 201 222 202 222 201 225 206 205 206 225 226 227 228 207 208 207 228 230 211 210 211 230 231 232 233 212 213 212 233 234 215 214 215 234 235 236 237 216 217 216 237 239 240 241 240 239 242 240 242 243 243 242 244 241 245 246 245 241 240 246 245 244 246 244 242 247 248 249 248 250 249 251 252 250 249 250 252 248 247 253 253 247 251 247 254 251 252 251 254 260 226 225 226 260 261 262 263 227 228 227 263 264 231 230 231 264 265 266 267 232 233 232 267</p>
                </triangles>
                <lines count="112" material="Material3">
                    <input offset="0" semantic="VERTEX" source="#ID56" />
                    <p>8 9 9 10 10 11 8 11 20 21 20 9 21 8 9 30 30 31 31 10 10 40 40 41 11 41 40 20 41 21 54 20 54 30 30 59 59 60 60 31 31 65 65 40 65 54 68 54 68 59 59 73 73 74 74 60 60 77 77 65 77 68 80 68 80 73 73 85 85 86 86 74 74 89 89 77 89 80 92 80 92 85 85 97 97 98 98 86 86 101 101 89 101 92 104 92 104 97 97 109 109 110 110 98 98 113 113 101 113 104 118 104 118 109 109 123 123 124 124 110 110 129 129 113 129 118 138 118 138 123 123 143 143 144 144 124 124 149 149 129 149 138 158 138 158 143 143 163 163 164 164 144 144 169 169 149 169 158 178 158 178 163 163 183 183 184 184 164 164 189 189 169 189 178 198 178 198 183 183 203 203 204 204 184 184 209 209 189 209 198 218 198 218 203 203 223 223 224 224 204 204 229 229 209 229 218 238 218 238 223 224 255 255 238 256 257 257 258 258 259 259 256 255 229</p>
                </lines>
            </mesh>
        </geometry>
        <geometry id="ID60">
            <mesh>
                <source id="ID61">
                    <float_array id="ID65" count="120">0.375 0.5 -0.5 1 0.5 -35.5 0.375 0.5 -35.5 1 0.5 -0.5 1 0.5 -0.5 0.375 0.5 -0.5 1 0.5 -35.5 0.375 0.5 -35.5 0.375 0.5 -0.5 1 0.5 -0.5 1 0.5 -35.5 0.375 0.5 -35.5 1 18.06324 -0.5 0.375 0.5 -0.5 0.375 18.06324 -0.5 1 0.5 -0.5 1 0.5 -0.5 1 18.06324 -0.5 0.375 0.5 -0.5 0.375 18.06324 -0.5 1 18.06324 -0.5 0.375 18.06324 -0.5 1 0.5 -35.5 0.375 18.06324 -35.5 0.375 0.5 -35.5 1 18.06324 -35.5 1 18.06324 -35.5 1 0.5 -35.5 0.375 18.06324 -35.5 0.375 0.5 -35.5 1 18.06324 -35.5 0.375 18.06324 -35.5 1 18.06324 -0.5 0.375 18.06324 -35.5 1 18.06324 -35.5 0.375 18.06324 -0.5 0.375 18.06324 -0.5 1 18.06324 -0.5 0.375 18.06324 -35.5 1 18.06324 -35.5</float_array>
                    <technique_common>
                        <accessor count="40" source="#ID65" stride="3">
                            <param name="X" type="float" />
                            <param name="Y" type="float" />
                            <param name="Z" type="float" />
                        </accessor>
                    </technique_common>
                </source>
                <source id="ID62">
                    <float_array id="ID66" count="120">0 1 0 0 1 0 0 1 0 0 1 0 -0 -1 -0 -0 -1 -0 -0 -1 -0 -0 -1 -0 0 0 0 0 0 0 0 0 0 0 0 0 0 0 -1 0 0 -1 0 0 -1 0 0 -1 -0 -0 1 -0 -0 1 -0 -0 1 -0 -0 1 0 0 0 0 0 0 0 0 1 0 0 1 0 0 1 0 0 1 -0 -0 -1 -0 -0 -1 -0 -0 -1 -0 -0 -1 0 0 0 0 0 0 0 -1 0 0 -1 0 0 -1 0 0 -1 0 -0 1 -0 -0 1 -0 -0 1 -0 -0 1 -0</float_array>
                    <technique_common>
                        <accessor count="40" source="#ID66" stride="3">
                            <param name="X" type="float" />
                            <param name="Y" type="float" />
                            <param name="Z" type="float" />
                        </accessor>
                    </technique_common>
                </source>
                <source id="ID63">
                    <Name_array id="ID67" count="0" />
                    <technique_common>
                        <accessor count="0" source="#ID67" stride="1">
                            <param name="skp_material" type="Name" />
                        </accessor>
                    </technique_common>
                </source>
                <vertices id="ID64">
                    <input semantic="POSITION" source="#ID61" />
                    <input semantic="NORMAL" source="#ID62" />
                </vertices>
                <triangles count="16" material="Material2">
                    <input offset="0" semantic="VERTEX" source="#ID64" />
                    <p>0 1 2 1 0 3 4 5 6 7 6 5 12 13 14 13 12 15 16 17 18 19 18 17 22 23 24 23 22 25 26 27 28 29 28 27 32 33 34 33 32 35 36 37 38 39 38 37</p>
                </triangles>
                <lines count="12" material="Material3">
                    <input offset="0" semantic="VERTEX" source="#ID64" />
                    <p>8 9 9 10 10 11 8 11 20 21 20 9 21 8 10 30 30 31 11 31 30 20 31 21</p>
                </lines>
            </mesh>
        </geometry>
        <geometry id="ID68">
            <mesh>
                <source id="ID69">
                    <float_array id="ID71" count="12">36 -0.6981049 0 0 -0.6981049 0 36 -0.6981049 18.56324 0 -0.6981049 18.56324</float_array>
                    <technique_common>
                        <accessor count="4" source="#ID71" stride="3">
                            <param name="X" type="float" />
                            <param name="Y" type="float" />
                            <param name="Z" type="float" />
                        </accessor>
                    </technique_common>
                </source>
                <vertices id="ID70">
                    <input semantic="POSITION" source="#ID69" />
                </vertices>
                <lines count="4" material="Material2">
                    <input offset="0" semantic="VERTEX" source="#ID70" />
                    <p>1 0 0 2 2 3 3 1</p>
                </lines>
            </mesh>
        </geometry>
    </library_geometries>
    <library_materials>
        <material id="ID6" name="material">
            <instance_effect url="#ID5" />
        </material>
        <material id="ID12" name="material_0">
            <instance_effect url="#ID11" />
        </material>
        <material id="ID13" name="edge_color000255">
            <instance_effect url="#ID14" />
        </material>
        <material id="ID19" name="Buddha">
            <instance_effect url="#ID20" />
        </material>
        <material id="ID35" name="brushed_Steel">
            <instance_effect url="#ID36" />
        </material>
    </library_materials>
    <library_effects>
        <effect id="ID5">
            <profile_COMMON>
                <technique sid="COMMON">
                    <lambert>
                        <diffuse>
                            <color>1 1 1 1</color>
                        </diffuse>
                    </lambert>
                </technique>
            </profile_COMMON>
        </effect>
        <effect id="ID11">
            <profile_COMMON>
                <technique sid="COMMON">
                    <lambert>
                        <diffuse>
                            <color>0.6431373 0.6980392 0.7333333 1</color>
                        </diffuse>
                    </lambert>
                </technique>
            </profile_COMMON>
        </effect>
        <effect id="ID14">
            <profile_COMMON>
                <technique sid="COMMON">
                    <constant>
                        <transparent opaque="A_ONE">
                            <color>0 0 0 1</color>
                        </transparent>
                        <transparency>
                            <float>1</float>
                        </transparency>
                    </constant>
                </technique>
            </profile_COMMON>
        </effect>
        <effect id="ID20">
            <profile_COMMON>
                <newparam sid="ID22">
                    <surface type="2D">
                        <init_from>ID21</init_from>
                    </surface>
                </newparam>
                <newparam sid="ID23">
                    <sampler2D>
                        <source>ID22</source>
                    </sampler2D>
                </newparam>
                <technique sid="COMMON">
                    <lambert>
                        <diffuse>
                            <texture texture="ID23" texcoord="UVSET0" />
                        </diffuse>
                    </lambert>
                </technique>
            </profile_COMMON>
        </effect>
        <effect id="ID36">
            <profile_COMMON>
                <technique sid="COMMON">
                    <lambert>
                        <diffuse>
                            <color>0 0 0 1</color>
                        </diffuse>
                    </lambert>
                </technique>
            </profile_COMMON>
        </effect>
    </library_effects>
    <library_images>
        <image id="ID21">
            <init_from>model/Buddha.jpg</init_from>
        </image>
    </library_images>
    <scene>
        <instance_visual_scene url="#ID2" />
    </scene>
</COLLADA>
